500 2
291 576 865 628 150 50 368 573 768 631 14 803 653 398 929 966 91 446 761 324 387 522 718 191 711 971 238 234 800 461 418 961 370 156 299 300 210 747 483 186 190 155 589 142 861 376 6 488 323 921 307 517 776 800 132 482 524 792 223 617 785 146 12 752 225 729 564 642 709 601 150 601 758 911 851 142 158 258 927 841 272 173 766 826 799 520 119 823 424 143 950 276 619 990 494 2 947 892 478 765 58 506 356 719 856 618 146 597 581 376 175 248 120 556 86 804 932 590 952 793 904 289 519 917 824 381 589 98 799 169 973 971 318 72 599 107 917 173 120 42 668 170 797 18 742 702 53 431 776 689 314 258 105 78 92 676 858 931 287 134 936 369 404 709 355 942 575 874 12 108 554 723 79 826 279 882 985 344 38 546 205 679 579 9 46 134 299 752 423 949 465 258 401 296 651 526 860 877 505 756 737 353 327 89 815 433 526 432 141 691 331 914 470 930 301 982 106 322 735 767 717 347 970 634 986 29 287 972 960 107 520 935 56 859 134 697 332 915 879 362 408 698 146 925 965 566 414 909 77 652 753 448 84 629 422 96 383 217 921 806 978 956 730 356 339 221 994 342 883 143 484 664 28 426 430 709 475 495 27 149 511 570 69 148 435 1000 993 446 279 413 652 679 97 340 762 53 82 546 787 686 739 77 714 30 98 53 249 866 398 870 784 352 793 526 51 802 131 30 945 505 124 452 520 424 856 225 934 66 518 428 482 769 719 691 420 2 489 835 552 741 921 225 358 760 659 105 901 528 16 309 911 946 569 946 205 553 863 68 586 285 594 994 956 552 471 484 945 694 213 109 419 766 23 899 506 502 694 280 841 42 189 194 706 941 844 675 635 585 298 7 699 969 810 528 380 482 671 891 188 125 812 667 806 603 310 79 115 113 54 76 276 489 614 652 248 596 20 858 693 824 609 97 258 901 904 1000 669 230 277 350 221 406 570 870 262 53 323 185 455 484 402 484 220 574 198 43 704 850 392 672 865 579 967 229 675 503 768 787 493 161 142 8 164 883 683 528 471 538 913 402 137 575 494 467 417 895 941 260 405 766 368 75 466 210 184 766 106 323 909 2 468 448 302 544 58 526 826 428 222 472 
729 386 113 415 844 955 663 497 324 366 977 259 425 660 148 72 911 654 306 725 676 495 351 827 235 12 667 716 263 477 506 94 696 853 620 789 868 165 580 738 903 851 386 940 71 655 982 450 650 135 792 489 170 287 967 545 508 279 770 448 187 894 931 262 872 201 490 403 311 435 870 365 219 6 206 844 791 684 107 161 631 731 247 97 175 547 905 210 536 809 82 824 446 66 546 908 27 161 550 157 923 592 560 339 95 334 904 344 437 558 769 801 884 518 887 246 133 402 138 259 144 736 425 174 113 711 386 809 269 844 97 113 756 859 319 992 22 764 967 928 312 732 222 996 347 245 896 556 282 363 605 782 883 852 919 325 147 96 676 917 84 605 675 199 596 13 461 92 953 982 424 375 853 135 789 127 74 616 960 485 731 379 509 960 970 891 662 152 671 40 578 664 651 717 407 417 134 68 414 312 195 589 615 976 224 483 450 572 919 324 572 6 512 94 735 112 992 759 286 144 276 712 28 327 111 971 661 54 63 919 423 2 883 137 848 265 716 152 51 626 651 247 854 41 99 378 661 131 961 329 235 637 826 278 649 821 571 845 65 135 67 64 246 601 591 757 51 587 118 864 500 428 937 502 588 329 509 430 1000 753 474 478 908 905 600 51 92 617 763 529 352 294 910 601 213 849 907 370 208 321 271 980 271 916 995 946 674 155 609 174 199 659 283 379 919 204 876 882 128 586 902 525 449 622 240 825 111 840 388 582 451 167 336 340 618 968 507 226 379 217 116 687 624 264 336 891 12 495 998 605 123 131 399 132 884 441 183 857 354 763 364 102 47 417 454 545 37 217 835 824 507 305 992 31 446 485 238 745 149 982 879 839 301 125 119 341 427 508 635 944 216 91 156 378 522 494 291 208 808 877 241 354 176 459 731 828 878 922 950 871 786 591 423 388 701 383 993 99 318 214 304 814 709 192 146 88 268 764 761 712 801 664 358 110 773 910 731 850 609 529 632 507 740 407 796 880 369 159 671 426 234 404 67 698 401 567 205 187 425 828 912 900 786 48 274 531 507 379 14 519 878 447 444 553 637 86 106 832 551 192 678 970 600 722 916 180 981 623 93 918 471 566 729 496 961 414 171 491 757 461 
789 499 746 180 38 774 3 316 211 64 783 197 474 168 261 915 645 567 310 606 544 57 787 144 650 558 186 385 704 652 966 82 202 719 516 278 483 484 598 35 211 907 673 333 351 691 269 80 42 817 10 867 741 122 153 835 79 68 540 550 100 157 802 941 939 17 748 670 915 79 902 242 708 974 370 600 705 249 720 455 327 344 20 152 509 594 594 587 288 942 96 851 363 786 411 177 452 985 796 447 722 521 437 179 718 777 307 11 490 111 34 231 399 556 206 209 510 350 19 804 647 347 403 176 509 810 905 948 923 274 151 627 870 373 609 352 378 994 914 626 593 848 621 15 233 183 721 357 496 803 82 683 954 295 235 634 948 787 96 447 817 357 396 453 252 104 8 695 157 659 475 901 79 686 88 166 102 319 175 517 794 791 544 356 523 983 17 277 900 630 265 975 762 375 618 94 554 358 551 289 584 557 108 20 330 124 217 414 32 599 631 272 665 353 691 259 334 989 148 414 416 770 803 924 212 283 232 612 484 46 939 449 428 41 602 496 496 817 576 102 344 284 546 442 675 936 835 705 534 821 979 423 274 984 531 774 349 190 909 341 829 365 47 5 927 767 20 533 770 363 708 500 728 936 565 642 454 482 782 240 676 419 243 71 940 30 113 889 900 702 338 638 965 69 603 197 266 180 473 914 217 89 734 526 752 978 548 915 561 267 329 69 905 81 369 358 133 453 911 54 288 598 973 377 231 488 994 718 838 828 305 782 402 548 95 796 276 137 942 603 36 271 378 260 997 959 206 518 348 958 400 963 244 568 14 110 398 520 545 310 996 258 877 256 996 841 586 210 849 148 6 161 884 904 480 608 951 362 709 693 919 841 719 500 751 838 221 297 586 336 855 140 446 355 770 37 998 590 23 848 214 774 39 596 997 425 486 484 132 785 137 810 643 4 744 318 562 696 722 872 185 165 301 392 440 918 863 919 29 567 731 736 355 625 494 310 146 191 929 842 715 36 263 94 829 914 20 354 317 982 515 157 368 800 846 944 716 376 138 736 86 920 973 599 126 695 320 145 362 251 356 391 393 975 231 341 218 234 94 115 981 502 891 163 468 949 603 795 250 107 453 724 489 72 424 669 855 653 854 525 123174
