<?xml version="1.0" encoding="UTF-8" standalone="no"?>
<!-- Created with Inkscape (http://www.inkscape.org/) -->

<svg
   xmlns:dc="http://purl.org/dc/elements/1.1/"
   xmlns:cc="http://creativecommons.org/ns#"
   xmlns:rdf="http://www.w3.org/1999/02/22-rdf-syntax-ns#"
   xmlns:svg="http://www.w3.org/2000/svg"
   xmlns="http://www.w3.org/2000/svg"
   xmlns:sodipodi="http://sodipodi.sourceforge.net/DTD/sodipodi-0.dtd"
   xmlns:inkscape="http://www.inkscape.org/namespaces/inkscape"
   width="436.69354"
   height="370.28571"
   id="svg2"
   version="1.1"
   inkscape:version="0.48.4 r9939"
   sodipodi:docname="sig1.svg">
  <defs
     id="defs4" />
  <sodipodi:namedview
     id="base"
     pagecolor="#ffffff"
     bordercolor="#666666"
     borderopacity="1.0"
     inkscape:pageopacity="0.0"
     inkscape:pageshadow="2"
     inkscape:zoom="1.979899"
     inkscape:cx="257.1822"
     inkscape:cy="193.41139"
     inkscape:document-units="px"
     inkscape:current-layer="layer1"
     showgrid="false"
     fit-margin-top="0"
     fit-margin-left="0"
     fit-margin-right="0"
     fit-margin-bottom="0"
     inkscape:window-width="1920"
     inkscape:window-height="1025"
     inkscape:window-x="0"
     inkscape:window-y="0"
     inkscape:window-maximized="1" />
  <metadata
     id="metadata7">
    <rdf:RDF>
      <cc:Work
         rdf:about="">
        <dc:format>image/svg+xml</dc:format>
        <dc:type
           rdf:resource="http://purl.org/dc/dcmitype/StillImage" />
        <dc:title />
      </cc:Work>
    </rdf:RDF>
  </metadata>
  <g
     inkscape:label="Camada 1"
     inkscape:groupmode="layer"
     id="layer1"
     transform="translate(-70.410156,-74.005033)">
    <text
       xml:space="preserve"
       style="font-size:40px;font-style:normal;font-variant:normal;font-weight:normal;font-stretch:normal;line-height:125%;letter-spacing:0px;word-spacing:0px;fill:#000000;fill-opacity:1;stroke:none;font-family:Liberation Mono;-inkscape-font-specification:Liberation Mono"
       x="68.203125"
       y="107.36218"
       id="text2985"
       sodipodi:linespacing="125%"><tspan
         sodipodi:role="line"
         id="tspan2987"
         x="68.203125"
         y="107.36218">CLK</tspan></text>
    <path
       style="fill:none;stroke:#000000;stroke-width:1px;stroke-linecap:butt;stroke-linejoin:miter;stroke-opacity:1"
       d="m 160.96497,118.09627 18.92857,0 0,-42.85714 c 0,0 13.40297,0 19.36107,0 0.0154,0 0.0274,43.30357 0.0274,43.30357"
       id="path3073"
       inkscape:connector-curvature="0"
       sodipodi:nodetypes="cccsc" />
    <g
       id="g3165">
      <path
         sodipodi:nodetypes="cccsc"
         inkscape:connector-curvature="0"
         id="path3073-8"
         d="m 198.82211,118.09627 18.92857,0 0,-42.857137 c 0,0 13.40297,0 19.36107,0 0.0154,0 0.0274,43.303567 0.0274,43.303567"
         style="fill:none;stroke:#000000;stroke-width:1px;stroke-linecap:butt;stroke-linejoin:miter;stroke-opacity:1" />
      <path
         sodipodi:nodetypes="cccsc"
         inkscape:connector-curvature="0"
         id="path3073-8-6"
         d="m 237.21497,118.09627 18.92857,0 0,-42.857137 c 0,0 13.40297,0 19.36107,0 0.0154,0 0.0274,43.303567 0.0274,43.303567"
         style="fill:none;stroke:#000000;stroke-width:1px;stroke-linecap:butt;stroke-linejoin:miter;stroke-opacity:1" />
      <path
         sodipodi:nodetypes="cccsc"
         inkscape:connector-curvature="0"
         id="path3073-8-6-8"
         d="m 275.42926,118.09627 18.92857,0 0,-42.857137 c 0,0 13.40297,0 19.36107,0 0.0154,0 0.0274,43.303567 0.0274,43.303567"
         style="fill:none;stroke:#000000;stroke-width:1px;stroke-linecap:butt;stroke-linejoin:miter;stroke-opacity:1" />
      <path
         sodipodi:nodetypes="cccsc"
         inkscape:connector-curvature="0"
         id="path3073-8-6-8-7"
         d="m 313.2864,118.09627 18.92857,0 0,-42.857137 c 0,0 13.40297,0 19.36107,0 0.0154,0 0.0274,43.303567 0.0274,43.303567"
         style="fill:none;stroke:#000000;stroke-width:1px;stroke-linecap:butt;stroke-linejoin:miter;stroke-opacity:1" />
    </g>
    <g
       id="g3165-8"
       transform="translate(152.8289,0)">
      <path
         sodipodi:nodetypes="cccsc"
         inkscape:connector-curvature="0"
         id="path3073-8-9"
         d="m 198.82211,118.09627 18.92857,0 0,-42.857137 c 0,0 13.40297,0 19.36107,0 0.0154,0 0.0274,43.303567 0.0274,43.303567"
         style="fill:none;stroke:#000000;stroke-width:1px;stroke-linecap:butt;stroke-linejoin:miter;stroke-opacity:1" />
      <path
         sodipodi:nodetypes="cccsc"
         inkscape:connector-curvature="0"
         id="path3073-8-6-9"
         d="m 237.21497,118.09627 18.92857,0 0,-42.857137 c 0,0 13.40297,0 19.36107,0 0.0154,0 0.0274,43.303567 0.0274,43.303567"
         style="fill:none;stroke:#000000;stroke-width:1px;stroke-linecap:butt;stroke-linejoin:miter;stroke-opacity:1" />
      <path
         sodipodi:nodetypes="cccsc"
         inkscape:connector-curvature="0"
         id="path3073-8-6-8-9"
         d="m 275.42926,118.09627 18.92857,0 0,-42.857137 c 0,0 13.40297,0 19.36107,0 0.0154,0 0.0274,43.303567 0.0274,43.303567"
         style="fill:none;stroke:#000000;stroke-width:1px;stroke-linecap:butt;stroke-linejoin:miter;stroke-opacity:1" />
      <path
         sodipodi:nodetypes="cccsc"
         inkscape:connector-curvature="0"
         id="path3073-8-6-8-7-2"
         d="m 313.2864,118.09627 18.92857,0 0,-42.857137 c 0,0 13.40297,0 19.36107,0 0.0154,0 0.0274,43.303567 0.0274,43.303567"
         style="fill:none;stroke:#000000;stroke-width:1px;stroke-linecap:butt;stroke-linejoin:miter;stroke-opacity:1" />
    </g>
    <g
       id="g4034"
       transform="translate(0,63.214286)">
      <path
         inkscape:connector-curvature="0"
         id="path3246-4"
         d="m 198.92857,11.290749 0,369.285711"
         style="fill:none;stroke:#000000;stroke-width:1;stroke-linecap:butt;stroke-linejoin:miter;stroke-miterlimit:4;stroke-opacity:1;stroke-dasharray:1, 2;stroke-dashoffset:0"
         sodipodi:nodetypes="cc" />
      <path
         inkscape:connector-curvature="0"
         id="path3246-4-7"
         d="m 236.07143,11.290747 0,369.285703"
         style="fill:none;stroke:#000000;stroke-width:1;stroke-linecap:butt;stroke-linejoin:miter;stroke-miterlimit:4;stroke-opacity:1;stroke-dasharray:1, 2;stroke-dashoffset:0"
         sodipodi:nodetypes="cc" />
      <path
         inkscape:connector-curvature="0"
         id="path3246-4-7-3"
         d="m 275.46738,11.290747 0,369.285693"
         style="fill:none;stroke:#000000;stroke-width:1;stroke-linecap:butt;stroke-linejoin:miter;stroke-miterlimit:4;stroke-opacity:1;stroke-dasharray:1, 2;stroke-dashoffset:0"
         sodipodi:nodetypes="cc" />
      <path
         inkscape:connector-curvature="0"
         id="path3246-4-7-3-3"
         d="m 313.77095,11.290747 0,369.285683"
         style="fill:none;stroke:#000000;stroke-width:1;stroke-linecap:butt;stroke-linejoin:miter;stroke-miterlimit:4;stroke-opacity:1;stroke-dasharray:1, 2;stroke-dashoffset:0"
         sodipodi:nodetypes="cc" />
      <path
         inkscape:connector-curvature="0"
         id="path3246-4-7-3-3-3"
         d="m 351.53881,11.290747 0,369.285673"
         style="fill:none;stroke:#000000;stroke-width:1;stroke-linecap:butt;stroke-linejoin:miter;stroke-miterlimit:4;stroke-opacity:1;stroke-dasharray:1, 2;stroke-dashoffset:0"
         sodipodi:nodetypes="cc" />
      <path
         inkscape:connector-curvature="0"
         id="path3246-4-7-3-3-3-6"
         d="m 389.84238,11.290747 0,369.285663"
         style="fill:none;stroke:#000000;stroke-width:1;stroke-linecap:butt;stroke-linejoin:miter;stroke-miterlimit:4;stroke-opacity:1;stroke-dasharray:1, 2;stroke-dashoffset:0"
         sodipodi:nodetypes="cc" />
      <path
         inkscape:connector-curvature="0"
         id="path3246-4-7-3-3-3-6-0"
         d="m 428.32452,11.290747 0,369.285653"
         style="fill:none;stroke:#000000;stroke-width:1;stroke-linecap:butt;stroke-linejoin:miter;stroke-miterlimit:4;stroke-opacity:1;stroke-dasharray:1, 2;stroke-dashoffset:0"
         sodipodi:nodetypes="cc" />
      <path
         inkscape:connector-curvature="0"
         id="path3246-4-7-3-3-3-6-0-3"
         d="m 466.44952,11.290747 0,369.285643"
         style="fill:none;stroke:#000000;stroke-width:1;stroke-linecap:butt;stroke-linejoin:miter;stroke-miterlimit:4;stroke-opacity:1;stroke-dasharray:1, 2;stroke-dashoffset:0"
         sodipodi:nodetypes="cc" />
    </g>
    <g
       id="g3018"
       transform="translate(0,-117.14286)">
      <text
         sodipodi:linespacing="125%"
         id="text2985-8-2-2"
         y="354.82172"
         x="93.164062"
         style="font-size:40px;font-style:normal;font-variant:normal;font-weight:normal;font-stretch:normal;line-height:125%;letter-spacing:0px;word-spacing:0px;fill:#000000;fill-opacity:1;stroke:none;font-family:Liberation Mono;-inkscape-font-specification:Liberation Mono"
         xml:space="preserve"><tspan
           y="354.82172"
           x="93.164062"
           id="tspan2987-2-1-5"
           sodipodi:role="line">PR</tspan></text>
      <text
         sodipodi:linespacing="125%"
         id="text2985-8-2-2-0"
         y="292.96417"
         x="69.179688"
         style="font-size:40px;font-style:normal;font-variant:normal;font-weight:normal;font-stretch:normal;line-height:125%;letter-spacing:0px;word-spacing:0px;fill:#000000;fill-opacity:1;stroke:none;font-family:Liberation Mono;-inkscape-font-specification:Liberation Mono"
         xml:space="preserve"><tspan
           y="292.96417"
           x="69.179688"
           id="tspan2987-2-1-5-9"
           sodipodi:role="line">CLR</tspan></text>
      <path
         sodipodi:nodetypes="cccc"
         inkscape:connector-curvature="0"
         id="path4121"
         d="m 160.35714,305.57647 46.42857,0 0,-42.85715 299.81798,0"
         style="fill:none;stroke:#000000;stroke-width:1px;stroke-linecap:butt;stroke-linejoin:miter;stroke-opacity:1" />
      <path
         sodipodi:nodetypes="cccccc"
         inkscape:connector-curvature="0"
         id="path4123"
         d="m 160.71429,324.50504 223.57142,0 -0.47398,43.05775 19.45555,0.16555 -0.13686,-42.93335 102.1493,-0.28995"
         style="fill:none;stroke:#000000;stroke-width:1px;stroke-linecap:butt;stroke-linejoin:miter;stroke-opacity:1" />
    </g>
    <g
       id="g3026"
       transform="translate(0,126.42857)">
      <text
         sodipodi:linespacing="125%"
         id="text2985-8"
         y="169.0244"
         x="120.87891"
         style="font-size:40px;font-style:normal;font-variant:normal;font-weight:normal;font-stretch:normal;line-height:125%;letter-spacing:0px;word-spacing:0px;fill:#000000;fill-opacity:1;stroke:none;font-family:Liberation Mono;-inkscape-font-specification:Liberation Mono"
         xml:space="preserve"><tspan
           y="169.0244"
           x="120.87891"
           id="tspan2987-2"
           sodipodi:role="line">J</tspan></text>
      <text
         sodipodi:linespacing="125%"
         id="text2985-8-2"
         y="231.08702"
         x="116.17188"
         style="font-size:40px;font-style:normal;font-variant:normal;font-weight:normal;font-stretch:normal;line-height:125%;letter-spacing:0px;word-spacing:0px;fill:#000000;fill-opacity:1;stroke:none;font-family:Liberation Mono;-inkscape-font-specification:Liberation Mono"
         xml:space="preserve"><tspan
           y="231.08702"
           x="116.17188"
           id="tspan2987-2-1"
           sodipodi:role="line">K</tspan></text>
      <path
         sodipodi:nodetypes="ccccccccccc"
         inkscape:connector-curvature="0"
         id="path4125"
         d="m 160,180.93361 8.57143,0 0,-43.21429 40.35714,0 47.39764,0 -0.50508,43.6891 28.31655,-0.34724 0.40872,-43.04807 59.38202,-0.069 -1e-5,42.84968 160.23656,-0.14299"
         style="fill:none;stroke:#000000;stroke-width:1px;stroke-linecap:butt;stroke-linejoin:miter;stroke-opacity:1" />
      <path
         sodipodi:nodetypes="cccccccc"
         inkscape:connector-curvature="0"
         id="path4127"
         d="m 160,242.36218 140.71429,0 0.35714,-42.5 42.4633,-0.50948 0.43473,42.11012 109.08395,0.50506 -0.25848,-41.90031 51.83179,-0.1318"
         style="fill:none;stroke:#000000;stroke-width:1px;stroke-linecap:butt;stroke-linejoin:miter;stroke-opacity:1" />
    </g>
    <text
       xml:space="preserve"
       style="font-size:40px;font-style:normal;font-variant:normal;font-weight:normal;font-stretch:normal;line-height:125%;letter-spacing:0px;word-spacing:0px;fill:#000000;fill-opacity:1;stroke:none;font-family:Liberation Mono;-inkscape-font-specification:Liberation Mono"
       x="116.73549"
       y="416.25027"
       id="text2985-8-2-2-1"
       sodipodi:linespacing="125%"><tspan
         sodipodi:role="line"
         id="tspan2987-2-1-5-8"
         x="116.73549"
         y="416.25027">Q</tspan></text>
    <g
       id="g3808">
      <path
         inkscape:connector-curvature="0"
         id="path3020"
         d="m 162.91016,117.86217 342.85714,0"
         style="fill:none;stroke:#000000;stroke-width:0.30000001;stroke-linecap:butt;stroke-linejoin:miter;stroke-miterlimit:4;stroke-opacity:1;stroke-dasharray:0.3, 0.3;stroke-dashoffset:0" />
      <path
         inkscape:connector-curvature="0"
         id="path3020-2"
         d="m 162.91016,74.826456 342.85714,0"
         style="fill:none;stroke:#000000;stroke-width:0.30000001;stroke-linecap:butt;stroke-linejoin:miter;stroke-miterlimit:4;stroke-opacity:1;stroke-dasharray:0.3, 0.3;stroke-dashoffset:0" />
    </g>
    <g
       transform="translate(0,70.357145)"
       id="g3808-7">
      <path
         inkscape:connector-curvature="0"
         id="path3020-8"
         d="m 162.91016,117.86217 342.85714,0"
         style="fill:none;stroke:#000000;stroke-width:0.30000001;stroke-linecap:butt;stroke-linejoin:miter;stroke-miterlimit:4;stroke-opacity:1;stroke-dasharray:0.3, 0.3;stroke-dashoffset:0" />
      <path
         inkscape:connector-curvature="0"
         id="path3020-2-5"
         d="m 162.91016,74.826456 342.85714,0"
         style="fill:none;stroke:#000000;stroke-width:0.30000001;stroke-linecap:butt;stroke-linejoin:miter;stroke-miterlimit:4;stroke-opacity:1;stroke-dasharray:0.3, 0.3;stroke-dashoffset:0" />
    </g>
    <g
       transform="translate(0,132.14286)"
       id="g3808-7-6">
      <path
         inkscape:connector-curvature="0"
         id="path3020-8-9"
         d="m 162.91016,117.86217 342.85714,0"
         style="fill:none;stroke:#000000;stroke-width:0.30000001;stroke-linecap:butt;stroke-linejoin:miter;stroke-miterlimit:4;stroke-opacity:1;stroke-dasharray:0.3, 0.3;stroke-dashoffset:0" />
      <path
         inkscape:connector-curvature="0"
         id="path3020-2-5-6"
         d="m 162.91016,74.826456 342.85714,0"
         style="fill:none;stroke:#000000;stroke-width:0.30000001;stroke-linecap:butt;stroke-linejoin:miter;stroke-miterlimit:4;stroke-opacity:1;stroke-dasharray:0.3, 0.3;stroke-dashoffset:0" />
    </g>
    <g
       transform="translate(0,189.64286)"
       id="g3808-7-6-4">
      <path
         inkscape:connector-curvature="0"
         id="path3020-8-9-6"
         d="m 162.91016,117.86217 342.85714,0"
         style="fill:none;stroke:#000000;stroke-width:0.30000001;stroke-linecap:butt;stroke-linejoin:miter;stroke-miterlimit:4;stroke-opacity:1;stroke-dasharray:0.3, 0.3;stroke-dashoffset:0" />
      <path
         inkscape:connector-curvature="0"
         id="path3020-2-5-6-3"
         d="m 162.91016,74.826456 342.85714,0"
         style="fill:none;stroke:#000000;stroke-width:0.30000001;stroke-linecap:butt;stroke-linejoin:miter;stroke-miterlimit:4;stroke-opacity:1;stroke-dasharray:0.3, 0.3;stroke-dashoffset:0" />
    </g>
    <g
       transform="translate(0,250.71429)"
       id="g3808-7-6-4-8">
      <path
         inkscape:connector-curvature="0"
         id="path3020-8-9-6-4"
         d="m 162.91016,117.86217 342.85714,0"
         style="fill:none;stroke:#000000;stroke-width:0.30000001;stroke-linecap:butt;stroke-linejoin:miter;stroke-miterlimit:4;stroke-opacity:1;stroke-dasharray:0.3, 0.3;stroke-dashoffset:0" />
      <path
         inkscape:connector-curvature="0"
         id="path3020-2-5-6-3-8"
         d="m 162.91016,74.826456 342.85714,0"
         style="fill:none;stroke:#000000;stroke-width:0.30000001;stroke-linecap:butt;stroke-linejoin:miter;stroke-miterlimit:4;stroke-opacity:1;stroke-dasharray:0.3, 0.3;stroke-dashoffset:0" />
    </g>
    <g
       transform="translate(0,312.14286)"
       id="g3808-7-6-4-8-5">
      <path
         inkscape:connector-curvature="0"
         id="path3020-8-9-6-4-0"
         d="m 162.91016,117.86217 342.85714,0"
         style="fill:none;stroke:#000000;stroke-width:0.30000001;stroke-linecap:butt;stroke-linejoin:miter;stroke-miterlimit:4;stroke-opacity:1;stroke-dasharray:0.3, 0.3;stroke-dashoffset:0" />
      <path
         inkscape:connector-curvature="0"
         id="path3020-2-5-6-3-8-8"
         d="m 162.91016,74.826456 342.85714,0"
         style="fill:none;stroke:#000000;stroke-width:0.30000001;stroke-linecap:butt;stroke-linejoin:miter;stroke-miterlimit:4;stroke-opacity:1;stroke-dasharray:0.3, 0.3;stroke-dashoffset:0" />
    </g>
  </g>
</svg>
