<?xml version="1.0" encoding="UTF-8" standalone="no"?>
<!-- Created with Inkscape (http://www.inkscape.org/) -->

<svg
   xmlns:dc="http://purl.org/dc/elements/1.1/"
   xmlns:cc="http://creativecommons.org/ns#"
   xmlns:rdf="http://www.w3.org/1999/02/22-rdf-syntax-ns#"
   xmlns:svg="http://www.w3.org/2000/svg"
   xmlns="http://www.w3.org/2000/svg"
   xmlns:sodipodi="http://sodipodi.sourceforge.net/DTD/sodipodi-0.dtd"
   xmlns:inkscape="http://www.inkscape.org/namespaces/inkscape"
   width="257.85712"
   height="539.85718"
   id="svg3970"
   version="1.1"
   inkscape:version="0.48.4 r9939"
   sodipodi:docname="flow1.svg">
  <defs
     id="defs3972" />
  <sodipodi:namedview
     id="base"
     pagecolor="#ffffff"
     bordercolor="#666666"
     borderopacity="1.0"
     inkscape:pageopacity="0.0"
     inkscape:pageshadow="2"
     inkscape:zoom="1.4"
     inkscape:cx="111.49027"
     inkscape:cy="262.67261"
     inkscape:document-units="px"
     inkscape:current-layer="g3200"
     showgrid="false"
     fit-margin-top="0"
     fit-margin-left="0"
     fit-margin-right="0"
     fit-margin-bottom="7"
     inkscape:window-width="1920"
     inkscape:window-height="1025"
     inkscape:window-x="0"
     inkscape:window-y="0"
     inkscape:window-maximized="1" />
  <metadata
     id="metadata3975">
    <rdf:RDF>
      <cc:Work
         rdf:about="">
        <dc:format>image/svg+xml</dc:format>
        <dc:type
           rdf:resource="http://purl.org/dc/dcmitype/StillImage" />
        <dc:title />
      </cc:Work>
    </rdf:RDF>
  </metadata>
  <g
     inkscape:label="Camada 1"
     inkscape:groupmode="layer"
     id="layer1"
     transform="translate(624.4496,579.62367)">
    <g
       transform="matrix(1.25,0,0,-1.25,-470.55867,-346.51476)"
       id="g3198">
      <g
         id="g3200">
        <g
           id="g3202"
           transform="translate(3.619728,141.91649)">
          <path
             inkscape:connector-curvature="0"
             d="m 49.14929,7.79623 -98.29858,0 c -2.20094,0 -3.98511,-1.78416 -3.98511,-3.9851 l 0,-7.62226 c 0,-2.20094 1.78417,-3.9851 3.98511,-3.9851 l 98.29858,0 c 2.20094,0 3.98511,1.78416 3.98511,3.9851 l 0,7.62226 c 0,2.20094 -1.78417,3.9851 -3.98511,3.9851 z"
             style="fill:none;stroke:#000000;stroke-width:0.3985;stroke-linecap:butt;stroke-linejoin:miter;stroke-miterlimit:10;stroke-opacity:1;stroke-dasharray:none"
             id="path3204" />
          <g
             id="g3206"
             transform="translate(-49.813,-2.319)">
            <g
               id="g3208"
               transform="translate(9.409,0)">
              <g
                 id="g3210"
                 transform="translate(-137.104,-290.996)">
                <text
                   transform="matrix(1,0,0,-1,137.104,290.996)"
                   id="text3212">
                  <tspan
                     style="font-size:9.96259975px;font-variant:normal;writing-mode:lr-tb;fill:#000000;fill-opacity:1;fill-rule:nonzero;stroke:none;font-family:Nimbus Roman No9 L;-inkscape-font-specification:NimbusRomNo9L-Regu"
                     x="0 2.7696028 7.7509027 10.520506 13.290109 16.059711 20.483105 23.252708 26.02231 30.445705 38.186646 43.167946 48.149246 53.130547 58.111847 60.881447 65.30484 68.074448 70.844048 75.825348"
                     y="0"
                     sodipodi:role="line"
                     id="tspan3214">initializepopulation</tspan>
                </text>
                <g
                   id="g3216"
                   transform="translate(127.695,290.996)" />
              </g>
            </g>
            <g
               id="g3218"
               transform="translate(49.813,2.319)" />
          </g>
        </g>
        <g
           id="g3220"
           transform="translate(3.619728,112.30269)">
          <path
             inkscape:connector-curvature="0"
             d="m 49.14929,-43.41786 -98.29858,0 c -2.20094,0 -3.98511,-1.78417 -3.98511,-3.98511 l 0,-18.58131 c 0,-2.20095 1.78417,-3.98511 3.98511,-3.98511 l 98.29858,0 c 2.20094,0 3.98511,1.78416 3.98511,3.98511 l 0,18.58131 c 0,2.20094 -1.78417,3.98511 -3.98511,3.98511 z"
             style="fill:none;stroke:#000000;stroke-width:0.3985;stroke-linecap:butt;stroke-linejoin:miter;stroke-miterlimit:10;stroke-opacity:1;stroke-dasharray:none"
             id="path3222" />
          <g
             id="g3224"
             transform="translate(-49.813,-53.532)">
            <g
               id="g3226"
               transform="translate(19.371,0)">
              <g
                 id="g3228"
                 transform="translate(-147.066,-239.783)">
                <g
                   id="g3236"
                   transform="translate(127.695,239.783)" />
                <flowRoot
                   xml:space="preserve"
                   id="flowRoot4165"
                   style="font-size:14px;font-style:normal;font-variant:normal;font-weight:normal;font-stretch:normal;line-height:125%;letter-spacing:0px;word-spacing:0px;fill:#000000;fill-opacity:1;stroke:none;font-family:Nimbus Roman No9 L;-inkscape-font-specification:Nimbus Roman No9 L"
                   transform="matrix(0.8,0,0,-0.8,63.351752,301.315)"><flowRegion
                     id="flowRegion4167"><rect
                       id="rect4169"
                       width="115"
                       height="52.857143"
                       x="88.214287"
                       y="72.047989"
                       style="font-size:14px;font-style:normal;font-variant:normal;font-weight:normal;font-stretch:normal;font-family:Nimbus Roman No9 L;-inkscape-font-specification:Nimbus Roman No9 L" /></flowRegion><flowPara
                     id="flowPara4171" /></flowRoot>                <flowRoot
                   xml:space="preserve"
                   id="flowRoot4173"
                   style="font-size:14px;font-style:normal;font-variant:normal;font-weight:normal;font-stretch:normal;line-height:125%;letter-spacing:0px;word-spacing:0px;fill:#000000;fill-opacity:1;stroke:none;font-family:Nimbus Roman No9 L;-inkscape-font-specification:Nimbus Roman No9 L"
                   transform="matrix(0.8,0,0,-0.8,63.351752,301.315)"><flowRegion
                     id="flowRegion4175"><rect
                       id="rect4177"
                       width="138.21428"
                       height="57.142857"
                       x="81.071426"
                       y="70.262276"
                       style="font-size:14px;font-style:normal;font-variant:normal;font-weight:normal;font-stretch:normal;font-family:Nimbus Roman No9 L;-inkscape-font-specification:Nimbus Roman No9 L" /></flowRegion><flowPara
                     id="flowPara4179" /></flowRoot>                <text
                   xml:space="preserve"
                   style="font-size:11.19999981px;font-style:normal;font-variant:normal;font-weight:normal;font-stretch:normal;text-align:center;line-height:125%;letter-spacing:0px;word-spacing:0px;text-anchor:middle;fill:#000000;fill-opacity:1;stroke:none;font-family:Nimbus Roman No9 L;-inkscape-font-specification:Nimbus Roman No9 L"
                   x="176.42171"
                   y="-241.10518"
                   id="text4181"
                   sodipodi:linespacing="125%"
                   transform="scale(1,-1)"><tspan
                     sodipodi:role="line"
                     id="tspan4183"
                     x="176.42171"
                     y="-241.10518"
                     style="font-size:10px">sort population</tspan><tspan
                     sodipodi:role="line"
                     x="176.42171"
                     y="-228.60518"
                     id="tspan4185"
                     style="font-size:10px">by fitness</tspan></text>
              </g>
            </g>
            <g
               id="g3238"
               transform="translate(49.813,53.532)" />
          </g>
        </g>
        <g
           id="g3246"
           transform="translate(-43.286,-131.06532)">
          <g
             id="g3248"
             transform="translate(-134.222,-177.604)">
            <g
               id="g3262"
               transform="translate(127.695,177.604)" />
            <rect
               style="color:#000000;fill:#ffffff;fill-opacity:1;stroke:none;stroke-width:0.80000001;marker:none;visibility:visible;display:inline;overflow:visible;enable-background:accumulate"
               id="rect3282"
               width="13.142839"
               height="18.285719"
               x="247.53812"
               y="-495.15643"
               transform="scale(1,-1)"
               ry="0" />
            <rect
               style="color:#000000;fill:#ffffff;fill-opacity:1;stroke:none;stroke-width:0.80000001;marker:none;visibility:visible;display:inline;overflow:visible;enable-background:accumulate"
               id="rect3282-4"
               width="13.142839"
               height="18.285719"
               x="54.79932"
               y="-81.540199"
               ry="0"
               transform="scale(1,-1)" />
          </g>
        </g>
        <g
           id="g3264"
           transform="translate(0,-15.35432)" />
        <g
           id="g3175"
           transform="translate(0,-5.6047729)">
          <g
             transform="translate(3.619728,58.67992)"
             id="g3268">
            <path
               inkscape:connector-curvature="0"
               d="m 27.06851,-170.0809 c 0,14.94972 -12.11881,27.06853 -27.06851,27.06853 -14.9497,0 -27.06851,-12.11881 -27.06851,-27.06853 0,-14.94971 12.11881,-27.06851 27.06851,-27.06851 14.9497,0 27.06851,12.1188 27.06851,27.06851 z"
               style="fill:#f2f2f2;fill-opacity:1;fill-rule:nonzero;stroke:#000000;stroke-width:0.3985;stroke-linecap:butt;stroke-linejoin:miter;stroke-miterlimit:10;stroke-opacity:1;stroke-dasharray:none"
               id="path3270" />
          </g>
          <g
             id="g3272"
             transform="translate(-18.796272,-102.75908)">
            <g
               id="g3274"
               transform="translate(9.435,0)">
              <g
                 id="g3276"
                 transform="translate(-164.527,-131.876)">
                <text
                   transform="matrix(1,0,0,-1,164.527,131.876)"
                   id="text3278">
                  <tspan
                     style="font-size:9.96259975px;font-variant:normal;writing-mode:lr-tb;fill:#000000;fill-opacity:1;fill-rule:nonzero;stroke:none;font-family:Nimbus Roman No9 L;-inkscape-font-specification:NimbusRomNo9L-Regu"
                     x="0 4.1743293 8.956377 13.937677 16.707281 21.539141"
                     y="0"
                     sodipodi:role="line"
                     id="tspan3280">evolve</tspan>
                  <tspan
                     style="font-size:9.96259975px;font-variant:normal;writing-mode:lr-tb;fill:#000000;fill-opacity:1;fill-rule:nonzero;stroke:none;font-family:Nimbus Roman No9 L;-inkscape-font-specification:NimbusRomNo9L-Regu"
                     x="3.855 8.2783947 12.701789 17.125183"
                     y="10.959"
                     sodipodi:role="line"
                     id="tspan3282">each</tspan>
                  <tspan
                     style="font-size:9.96259975px;font-variant:normal;writing-mode:lr-tb;fill:#000000;fill-opacity:1;fill-rule:nonzero;stroke:none;font-family:Nimbus Roman No9 L;-inkscape-font-specification:NimbusRomNo9L-Regu"
                     x="-4.0999999 0.32339439 5.3046942 13.055597 18.036898 20.806499 25.080456"
                     y="21.917"
                     sodipodi:role="line"
                     id="tspan3284">complex</tspan>
                </text>
                <g
                   id="g3286"
                   transform="translate(155.092,131.876)" />
              </g>
            </g>
            <g
               id="g3288"
               transform="translate(22.416,161.439)" />
          </g>
        </g>
        <g
           id="g3290"
           transform="translate(12.375346,33.461367)">
          <path
             inkscape:connector-curvature="0"
             d="m -56.1261,-113.38727 c 0,5.50237 -12.94519,9.96277 -28.91435,9.96277 -15.96916,0 -28.91437,-4.4604 -28.91437,-9.96277 0,-5.50235 12.94521,-9.96277 28.91437,-9.96277 15.96916,0 28.91435,4.46042 28.91435,9.96277 z"
             style="fill:none;stroke:#000000;stroke-width:0.3985;stroke-linecap:butt;stroke-linejoin:miter;stroke-miterlimit:10;stroke-opacity:1;stroke-dasharray:none"
             id="path3292" />
          <g
             id="g3294"
             transform="translate(-102.164,-116.733)">
            <g
               id="g3296">
              <g
                 id="g3298"
                 transform="translate(-75.344,-176.582)">
                <text
                   transform="matrix(1,0,0,-1,75.344,176.582)"
                   id="text3300">
                  <tspan
                     style="font-size:9.96259975px;font-variant:normal;font-weight:normal;writing-mode:lr-tb;fill:#000000;fill-opacity:1;fill-rule:nonzero;stroke:none;font-family:CMMI10;-inkscape-font-specification:CMMI10"
                     x="0"
                     y="0"
                     id="tspan3302">K</tspan>
                </text>
                <text
                   transform="matrix(1,0,0,-1,88.005,176.582)"
                   id="text3304">
                  <tspan
                     style="font-size:9.96259975px;font-variant:normal;writing-mode:lr-tb;fill:#000000;fill-opacity:1;fill-rule:nonzero;stroke:none;font-family:Nimbus Roman No9 L;-inkscape-font-specification:NimbusRomNo9L-Regu"
                     x="0 2.7696028 5.5392056 13.290109 17.713503"
                     y="0"
                     sodipodi:role="line"
                     id="tspan3306">times</tspan>
                </text>
                <g
                   id="g3308"
                   transform="translate(75.344,176.582)" />
              </g>
            </g>
            <g
               id="g3310"
               transform="translate(102.164,116.733)" />
          </g>
        </g>
        <g
           id="g3188">
          <path
             inkscape:connector-curvature="0"
             d="m 52.769018,-195.51692 -98.29858,0 c -2.20094,0 -3.98511,-1.78416 -3.98511,-3.98511 l 0,-7.62226 c 0,-2.20094 1.78417,-3.98511 3.98511,-3.98511 l 98.29858,0 c 2.20094,0 3.98511,1.78417 3.98511,3.98511 l 0,7.62226 c 0,2.20095 -1.78417,3.98511 -3.98511,3.98511 z"
             style="fill:none;stroke:#000000;stroke-width:0.3985;stroke-linecap:butt;stroke-linejoin:miter;stroke-miterlimit:10;stroke-opacity:1;stroke-dasharray:none"
             id="path3314" />
          <g
             id="g3316"
             transform="translate(-46.193272,-205.62863)">
            <g
               id="g3318"
               transform="translate(14.119,0)">
              <g
                 id="g3320"
                 transform="translate(-141.814,-64.225)">
                <text
                   transform="matrix(1,0,0,-1,141.814,64.225)"
                   id="text3322">
                  <tspan
                     style="font-size:9.96259975px;font-variant:normal;writing-mode:lr-tb;fill:#000000;fill-opacity:1;fill-rule:nonzero;stroke:none;font-family:Nimbus Roman No9 L;-inkscape-font-specification:NimbusRomNo9L-Regu"
                     x="0 3.3175459 7.7409401 10.510543 15.491843 18.809389 27.108234 32.089535 34.859138 39.840439 44.821739 49.245132 55.342243 60.323544 64.746941 68.622391"
                     y="0"
                     sodipodi:role="line"
                     id="tspan3324">returnglobalbest</tspan>
                </text>
                <g
                   id="g3326"
                   transform="translate(127.695,64.225)" />
              </g>
            </g>
            <g
               id="g3328"
               transform="translate(49.813,229.09)" />
          </g>
        </g>
        <path
           inkscape:connector-curvature="0"
           d="m 3.619728,133.90984 0,-62.623868"
           style="fill:none;stroke:#000000;stroke-width:0.3985;stroke-linecap:butt;stroke-linejoin:miter;stroke-miterlimit:10;stroke-opacity:1;stroke-dasharray:none"
           id="path3330"
           sodipodi:nodetypes="cc" />
        <g
           id="g3332"
           transform="matrix(0,-1,1,0,3.619728,71.363962)">
          <g
             id="g3334">
            <path
               inkscape:connector-curvature="0"
               d="m 2.39102,0 c -0.99626,0.19925 -2.78952,0.59775 -3.98503,1.49438 0.99626,-1.09588 0.99626,-1.89288 0,-2.98876 C -0.3985,-0.59775 1.39476,-0.19925 2.39102,0"
               style="fill:#000000;fill-opacity:1;fill-rule:nonzero;stroke:none"
               id="path3336" />
          </g>
        </g>
        <path
           inkscape:connector-curvature="0"
           d="m -23.648031,-116.95682 -51.992562,0 0,24.139582"
           style="fill:none;stroke:#000000;stroke-width:0.3985;stroke-linecap:butt;stroke-linejoin:miter;stroke-miterlimit:10;stroke-opacity:1;stroke-dasharray:none"
           id="path3338"
           sodipodi:nodetypes="ccc" />
        <g
           id="g3340"
           transform="matrix(0,1,-1,0,-65.05625,-92.478932)">
          <g
             id="g3342">
            <path
               inkscape:connector-curvature="0"
               d="m 2.39102,10.428571 c -0.99626,0.19925 -2.78952,0.59775 -3.98503,1.49438 0.99626,-1.09588 0.99626,-1.89288 0,-2.9887595 1.19551,0.89663 2.98877,1.2951295 3.98503,1.4943795"
               style="fill:#000000;fill-opacity:1;fill-rule:nonzero;stroke:none"
               id="path3344" />
          </g>
        </g>
        <path
           inkscape:connector-curvature="0"
           d="m -75.069164,-69.89954 0,126.636099 22.964203,0"
           style="fill:none;stroke:#000000;stroke-width:0.3985;stroke-linecap:butt;stroke-linejoin:miter;stroke-miterlimit:10;stroke-opacity:1;stroke-dasharray:none"
           id="path3346"
           sodipodi:nodetypes="ccc" />
        <g
           id="g3348"
           transform="translate(-52.104961,56.635544)">
          <g
             id="g3350">
            <path
               inkscape:connector-curvature="0"
               d="m 2.39102,0 c -0.99626,0.19925 -2.78952,0.59775 -3.98503,1.49438 0.99626,-1.09588 0.99626,-1.89288 0,-2.98876 C -0.3985,-0.59775 1.39476,-0.19925 2.39102,0"
               style="fill:#000000;fill-opacity:1;fill-rule:nonzero;stroke:none"
               id="path3352" />
          </g>
        </g>
        <path
           inkscape:connector-curvature="0"
           d="m 3.619728,42.049366 0,-63.886836"
           style="fill:none;stroke:#000000;stroke-width:0.3985;stroke-linecap:butt;stroke-linejoin:miter;stroke-miterlimit:10;stroke-opacity:1;stroke-dasharray:none"
           id="path3354"
           sodipodi:nodetypes="cc" />
        <g
           id="g3163"
           transform="translate(0,-6.087793)">
          <path
             inkscape:connector-curvature="0"
             d="m 52.769019,-18.620147 -98.29858,0 c -2.20094,0 -3.98511,-1.78416 -3.98511,-3.9851 l 0,-7.63566 c 0,-2.20094 1.78417,-3.9851 3.98511,-3.9851 l 98.29858,0 c 2.20094,0 3.98511,1.78416 3.98511,3.9851 l 0,7.63566 c 0,2.20094 -1.78417,3.9851 -3.98511,3.9851 z"
             style="fill:none;stroke:#000000;stroke-width:0.3985;stroke-linecap:butt;stroke-linejoin:miter;stroke-miterlimit:10;stroke-opacity:1;stroke-dasharray:none"
             id="path3242" />
          <text
             y="-279.92252"
             x="137.84172"
             id="text3250"
             transform="matrix(1,0,0,-1,-177.508,-308.66932)">
            <tspan
               id="tspan3252"
               sodipodi:role="line"
               y="-279.92252"
               x="137.84172 141.71716"
               style="font-size:9.96259975px;font-variant:normal;writing-mode:lr-tb;fill:#000000;fill-opacity:1;fill-rule:nonzero;stroke:none;font-family:Nimbus Roman No9 L;-inkscape-font-specification:NimbusRomNo9L-Regu">shuffle</tspan>
          </text>
          <text
             y="-279.92252"
             x="168.03072"
             id="text3254"
             transform="matrix(1,0,0,-1,-177.508,-308.66932)">
            <tspan
               id="tspan3256"
               y="-279.92252"
               x="168.03072"
               style="font-size:9.96259975px;font-variant:normal;font-weight:normal;writing-mode:lr-tb;fill:#000000;fill-opacity:1;fill-rule:nonzero;stroke:none;font-family:CMMI10;-inkscape-font-specification:CMMI10">N</tspan>
          </text>
          <text
             y="-279.92252"
             x="182.10272"
             id="text3258"
             transform="matrix(1,0,0,-1,-177.508,-308.66932)">
            <tspan
               id="tspan3260"
               sodipodi:role="line"
               y="-279.92252"
               x="182.10272 186.52611 191.50742 199.25832 204.23962 207.00922 211.28317 216.11504 220.53844"
               style="font-size:9.96259975px;font-variant:normal;writing-mode:lr-tb;fill:#000000;fill-opacity:1;fill-rule:nonzero;stroke:none;font-family:Nimbus Roman No9 L;-inkscape-font-specification:NimbusRomNo9L-Regu">complexes</tspan>
          </text>
          <g
             transform="matrix(0,-1,1,0,3.619728,-0.67553886)"
             id="g3356">
            <g
               id="g3358">
              <path
                 id="path3360"
                 style="fill:#000000;fill-opacity:1;fill-rule:nonzero;stroke:none"
                 d="m 18.105306,0 c -0.99626,0.19925 -2.78952,0.59775 -3.98503,1.49438 0.99626,-1.09588 0.99626,-1.89288 0,-2.98876 1.19551,0.89663 2.98877,1.29513 3.98503,1.49438"
                 inkscape:connector-curvature="0" />
            </g>
          </g>
        </g>
        <path
           inkscape:connector-curvature="0"
           d="m 3.619728,-40.245784 0,-48.296817"
           style="fill:none;stroke:#000000;stroke-width:0.3985;stroke-linecap:butt;stroke-linejoin:miter;stroke-miterlimit:10;stroke-opacity:1;stroke-dasharray:none"
           id="path3362"
           sodipodi:nodetypes="cc" />
        <g
           id="g3364"
           transform="matrix(0,-1,1,0,3.619728,-87.867184)">
          <g
             id="g3366">
            <path
               inkscape:connector-curvature="0"
               d="m 2.39102,0 c -0.99626,0.19925 -2.78952,0.59775 -3.98503,1.49438 0.99626,-1.09588 0.99626,-1.89288 0,-2.98876 C -0.3985,-0.59775 1.39476,-0.19925 2.39102,0"
               style="fill:#000000;fill-opacity:1;fill-rule:nonzero;stroke:none"
               id="path3368" />
          </g>
        </g>
        <path
           inkscape:connector-curvature="0"
           d="m 3.619728,-144.02256 0,-49.64697"
           style="fill:none;stroke:#000000;stroke-width:0.3985;stroke-linecap:butt;stroke-linejoin:miter;stroke-miterlimit:10;stroke-opacity:1;stroke-dasharray:none"
           id="path3370"
           sodipodi:nodetypes="cc" />
        <g
           id="g3372"
           transform="matrix(0,-1,1,0,3.619728,-193.36648)">
          <g
             id="g3374">
            <path
               inkscape:connector-curvature="0"
               d="m 2.39102,0 c -0.99626,0.19925 -2.78952,0.59775 -3.98503,1.49438 0.99626,-1.09588 0.99626,-1.89288 0,-2.98876 C -0.3985,-0.59775 1.39476,-0.19925 2.39102,0"
               style="fill:#000000;fill-opacity:1;fill-rule:nonzero;stroke:none"
               id="path3376" />
          </g>
        </g>
      </g>
    </g>
  </g>
</svg>
