<?xml version="1.0" encoding="UTF-8" standalone="no"?>
<!-- Created with Inkscape (http://www.inkscape.org/) -->

<svg
   xmlns:dc="http://purl.org/dc/elements/1.1/"
   xmlns:cc="http://creativecommons.org/ns#"
   xmlns:rdf="http://www.w3.org/1999/02/22-rdf-syntax-ns#"
   xmlns:svg="http://www.w3.org/2000/svg"
   xmlns="http://www.w3.org/2000/svg"
   xmlns:sodipodi="http://sodipodi.sourceforge.net/DTD/sodipodi-0.dtd"
   xmlns:inkscape="http://www.inkscape.org/namespaces/inkscape"
   width="674.81793"
   height="528.16309"
   id="svg2"
   version="1.1"
   inkscape:version="0.48.4 r9939"
   sodipodi:docname="sceflow.pdf">
  <defs
     id="defs4" />
  <sodipodi:namedview
     id="base"
     pagecolor="#ffffff"
     bordercolor="#666666"
     borderopacity="1.0"
     inkscape:pageopacity="0.0"
     inkscape:pageshadow="2"
     inkscape:zoom="1.4"
     inkscape:cx="410.68889"
     inkscape:cy="275.69025"
     inkscape:document-units="px"
     inkscape:current-layer="layer1"
     showgrid="false"
     fit-margin-top="0"
     fit-margin-left="0"
     fit-margin-right="0"
     fit-margin-bottom="0"
     inkscape:window-width="1920"
     inkscape:window-height="1025"
     inkscape:window-x="0"
     inkscape:window-y="0"
     inkscape:window-maximized="1" />
  <metadata
     id="metadata7">
    <rdf:RDF>
      <cc:Work
         rdf:about="">
        <dc:format>image/svg+xml</dc:format>
        <dc:type
           rdf:resource="http://purl.org/dc/dcmitype/StillImage" />
        <dc:title></dc:title>
      </cc:Work>
    </rdf:RDF>
  </metadata>
  <g
     inkscape:label="Camada 1"
     inkscape:groupmode="layer"
     id="layer1"
     transform="translate(-1.6635763,57.036289)">
    <g
       transform="matrix(1.25,0,0,-1.25,9.0264229,856.10408)"
       inkscape:label="paper"
       id="g3012">
      <g
         transform="translate(177.508,293.315)"
         id="g3196">
        <g
           transform="translate(272.014,431.203)"
           id="g3378">
          <g
             id="g3380">
            <g
               id="g3382">
              <g
                 transform="translate(0,-7.487395)"
                 id="g3384">
                <path
                   inkscape:connector-curvature="0"
                   id="path3386"
                   style="fill:none;stroke:#000000;stroke-width:0.3985;stroke-linecap:butt;stroke-linejoin:miter;stroke-miterlimit:10;stroke-opacity:1;stroke-dasharray:none"
                   d="m 49.14929,13.28244 -98.29858,0 c -2.20094,0 -3.98511,-1.78416 -3.98511,-3.98511 l 0,-18.59466 c 0,-2.20095 1.78417,-3.98511 3.98511,-3.98511 l 98.29858,0 c 2.20094,0 3.98511,1.78416 3.98511,3.98511 l 0,18.59466 c 0,2.20095 -1.78417,3.98511 -3.98511,3.98511 z" />
                <g
                   transform="translate(-49.813,3.154)"
                   id="g3388">
                  <g
                     transform="translate(11.181,0)"
                     id="g3390">
                    <g
                       transform="translate(-410.89,-727.672)"
                       id="g3392">
                      <g
                         transform="translate(399.709,727.672)"
                         id="g3408" />
                      <text
                         transform="scale(1,-1)"
                         sodipodi:linespacing="125%"
                         id="text4628"
                         y="-728.19641"
                         x="450.68555"
                         style="font-size:11.19999981px;font-style:normal;font-variant:normal;font-weight:normal;font-stretch:normal;text-align:center;line-height:125%;letter-spacing:0px;word-spacing:0px;text-anchor:middle;fill:#000000;fill-opacity:1;stroke:none;font-family:Nimbus Roman No9 L;-inkscape-font-specification:Nimbus Roman No9 L"
                         xml:space="preserve"><tspan
                           id="tspan4632"
                           y="-728.19641"
                           x="450.68555"
                           sodipodi:role="line">select a subcomplex</tspan><tspan
                           id="tspan4636"
                           y="-714.15167"
                           x="450.68555"
                           sodipodi:role="line">of <tspan
   id="tspan4638"
   style="font-style:italic;-inkscape-font-specification:Nimbus Roman No9 L Italic">P</tspan> individuals</tspan></text>
                    </g>
                  </g>
                  <g
                     transform="translate(49.813,-3.154)"
                     id="g3410" />
                </g>
              </g>
              <g
                 id="g3412">
                <path
                   inkscape:connector-curvature="0"
                   id="path3414"
                   style="fill:none;stroke:#000000;stroke-width:0.3985;stroke-linecap:butt;stroke-linejoin:miter;stroke-miterlimit:10;stroke-opacity:1;stroke-dasharray:none"
                   d="m 49.14929,-38.4514 -98.29858,0 c -2.20094,0 -3.98511,-1.78417 -3.98511,-3.98511 l 0,-28.51423 c 0,-2.20095 1.78417,-3.98511 3.98511,-3.98511 l 98.29858,0 c 2.20094,0 3.98511,1.78416 3.98511,3.98511 l 0,28.51423 c 0,2.20094 -1.78417,3.98511 -3.98511,3.98511 z" />
                <g
                   transform="translate(-49.813,-47.539)"
                   id="g3416">
                  <g
                     transform="translate(26.898,0)"
                     id="g3418">
                    <g
                       transform="translate(-426.607,-676.979)"
                       id="g3420">
                      <text
                         id="text3422"
                         transform="matrix(1,0,0,-1,426.607,676.979)">
                        <tspan
                           id="tspan3424"
                           sodipodi:role="line"
                           y="0"
                           x="0 4.4233942 7.7409401 12.72224 16.597692 23.790689 30.88406 35.86536 39.182907 43.058357"
                           style="font-size:9.96259975px;font-variant:normal;writing-mode:lr-tb;fill:#000000;fill-opacity:1;fill-rule:nonzero;stroke:none;font-family:Nimbus Roman No9 L;-inkscape-font-specification:NimbusRomNo9L-Regu">crossworst</tspan>
                        <tspan
                           id="tspan3426"
                           sodipodi:role="line"
                           y="10.959"
                           x="-7.6820002 -4.9123974 0.068902798 5.0502028 7.5707407 12.552041 15.321644 20.302944 25.284243 29.707638 35.794785 42.987785 45.757385 48.526989"
                           style="font-size:9.96259975px;font-variant:normal;writing-mode:lr-tb;fill:#000000;fill-opacity:1;fill-rule:nonzero;stroke:none;font-family:Nimbus Roman No9 L;-inkscape-font-specification:NimbusRomNo9L-Regu">individualwith</tspan>
                        <tspan
                           id="tspan3428"
                           sodipodi:role="line"
                           y="21.917999"
                           x="-16.58 -11.5987 -7.1753054 -3.2998543 2.7872944 7.7685943 14.413649 18.289101 23.270399 28.251699 32.675095 37.656395 45.407299 50.388596 53.158199 57.432156"
                           style="font-size:9.96259975px;font-variant:normal;writing-mode:lr-tb;fill:#000000;fill-opacity:1;fill-rule:nonzero;stroke:none;font-family:Nimbus Roman No9 L;-inkscape-font-specification:NimbusRomNo9L-Regu">bestofsubcomplex</tspan>
                      </text>
                      <g
                         transform="translate(399.709,676.979)"
                         id="g3430" />
                    </g>
                  </g>
                  <g
                     transform="translate(49.813,47.539)"
                     id="g3432" />
                </g>
              </g>
              <g
                 id="g3434">
                <g
                   id="g3436">
                  <path
                     inkscape:connector-curvature="0"
                     id="path3438"
                     style="fill:#f2f2f2;fill-opacity:1;fill-rule:nonzero;stroke:#000000;stroke-width:0.3985;stroke-linecap:butt;stroke-linejoin:miter;stroke-miterlimit:10;stroke-opacity:1;stroke-dasharray:none"
                     d="M 26.80937,-113.38727 0,-86.5779 -26.80937,-113.38727 0,-140.19664 l 26.80937,26.80937 z" />
                </g>
                <g
                   transform="translate(-22.416,-115.704)"
                   id="g3440">
                  <g
                     transform="translate(1.26,0)"
                     id="g3442">
                    <g
                       transform="translate(-428.366,-608.814)"
                       id="g3444">
                      <text
                         id="text3446"
                         transform="matrix(1,0,0,-1,428.366,608.814)">
                        <tspan
                           id="tspan3448"
                           sodipodi:role="line"
                           y="0"
                           x="0 2.7696028 10.520506 15.501805 18.819351 23.651213 28.483074 32.906467 37.887768"
                           style="font-size:9.96259975px;font-variant:normal;writing-mode:lr-tb;fill:#000000;fill-opacity:1;fill-rule:nonzero;stroke:none;font-family:Nimbus Roman No9 L;-inkscape-font-specification:NimbusRomNo9L-Regu">improved?</tspan>
                      </text>
                      <g
                         transform="translate(427.106,608.814)"
                         id="g3450" />
                    </g>
                  </g>
                  <g
                     transform="translate(22.416,115.704)"
                     id="g3452" />
                </g>
              </g>
              <g
                 id="g3454">
                <path
                   inkscape:connector-curvature="0"
                   id="path3456"
                   style="fill:none;stroke:#000000;stroke-width:0.3985;stroke-linecap:butt;stroke-linejoin:miter;stroke-miterlimit:10;stroke-opacity:1;stroke-dasharray:none"
                   d="m 49.14929,-156.80513 -98.29858,0 c -2.20094,0 -3.98511,-1.78417 -3.98511,-3.98511 l 0,-18.58131 c 0,-2.20095 1.78417,-3.98511 3.98511,-3.98511 l 98.29858,0 c 2.20094,0 3.98511,1.78416 3.98511,3.98511 l 0,18.58131 c 0,2.20094 -1.78417,3.98511 -3.98511,3.98511 z" />
                <g
                   transform="translate(-49.813,-166.918)"
                   id="g3458">
                  <g
                     transform="translate(5.158,0)"
                     id="g3460">
                    <g
                       transform="translate(-404.867,-557.6)"
                       id="g3462">
                      <text
                         id="text3464"
                         transform="matrix(1,0,0,-1,404.867,557.6)">
                        <tspan
                           id="tspan3466"
                           sodipodi:role="line"
                           y="0"
                           x="0 4.4233942 7.7409401 12.72224 16.597692 23.790689 30.88406 35.86536 39.182907 43.058357 49.155468 51.925072 56.906372 61.887672 64.408211 69.389511 72.159111 77.140411 82.121712 86.545105"
                           style="font-size:9.96259975px;font-variant:normal;writing-mode:lr-tb;fill:#000000;fill-opacity:1;fill-rule:nonzero;stroke:none;font-family:Nimbus Roman No9 L;-inkscape-font-specification:NimbusRomNo9L-Regu">crossworstindividual</tspan>
                        <tspan
                           id="tspan3468"
                           sodipodi:role="line"
                           y="10.959"
                           x="1.562 8.7549973 11.5246 14.294203 22.593048 27.574348 31.997744 35.873196 41.970306 46.951607 53.586697 58.01009 62.99139 70.742294 75.723595 78.493195 82.767151"
                           style="font-size:9.96259975px;font-variant:normal;writing-mode:lr-tb;fill:#000000;fill-opacity:1;fill-rule:nonzero;stroke:none;font-family:Nimbus Roman No9 L;-inkscape-font-specification:NimbusRomNo9L-Regu">withbestofcomplex</tspan>
                      </text>
                      <g
                         transform="translate(399.709,557.6)"
                         id="g3470" />
                    </g>
                  </g>
                  <g
                     transform="translate(49.813,166.918)"
                     id="g3472" />
                </g>
              </g>
              <g
                 transform="translate(0,10.577431)"
                 id="g3512">
                <path
                   inkscape:connector-curvature="0"
                   id="path3514"
                   style="fill:none;stroke:#000000;stroke-width:0.3985;stroke-linecap:butt;stroke-linejoin:miter;stroke-miterlimit:10;stroke-opacity:1;stroke-dasharray:none"
                   d="m 49.14929,-270.1924 -98.29858,0 c -2.20094,0 -3.98511,-1.78416 -3.98511,-3.9851 l 0,-18.58132 c 0,-2.20094 1.78417,-3.98511 3.98511,-3.98511 l 98.29858,0 c 2.20094,0 3.98511,1.78417 3.98511,3.98511 l 0,18.58132 c 0,2.20094 -1.78417,3.9851 -3.98511,3.9851 z" />
                <g
                   transform="translate(-49.813,-280.303)"
                   id="g3516">
                  <g
                     transform="translate(5.158,0)"
                     id="g3518">
                    <g
                       transform="translate(-404.867,-444.215)"
                       id="g3520">
                      <text
                         id="text3522"
                         transform="matrix(1,0,0,-1,404.867,444.215)">
                        <tspan
                           id="tspan3524"
                           sodipodi:role="line"
                           y="0"
                           x="0 4.4233942 7.7409401 12.72224 16.597692 23.790689 30.88406 35.86536 39.182907 43.058357 49.155468 51.925072 56.906372 61.887672 64.408211 69.389511 72.159111 77.140411 82.121712 86.545105"
                           style="font-size:9.96259975px;font-variant:normal;writing-mode:lr-tb;fill:#000000;fill-opacity:1;fill-rule:nonzero;stroke:none;font-family:Nimbus Roman No9 L;-inkscape-font-specification:NimbusRomNo9L-Regu">crossworstindividual</tspan>
                        <tspan
                           id="tspan3526"
                           sodipodi:role="line"
                           y="10.959"
                           x="12 19.192997 21.962601 24.732203 33.031048 38.012348 40.781952 45.763252 50.744553 55.167946 61.265057 66.246361 70.669754 74.545204"
                           style="font-size:9.96259975px;font-variant:normal;writing-mode:lr-tb;fill:#000000;fill-opacity:1;fill-rule:nonzero;stroke:none;font-family:Nimbus Roman No9 L;-inkscape-font-specification:NimbusRomNo9L-Regu">withglobalbest</tspan>
                      </text>
                      <g
                         transform="translate(399.709,444.215)"
                         id="g3528" />
                    </g>
                  </g>
                  <g
                     transform="translate(49.813,280.303)"
                     id="g3530" />
                </g>
              </g>
              <g
                 transform="translate(0,22.611919)"
                 id="g3570">
                <path
                   inkscape:connector-curvature="0"
                   id="path3572"
                   style="fill:none;stroke:#000000;stroke-width:0.3985;stroke-linecap:butt;stroke-linejoin:miter;stroke-miterlimit:10;stroke-opacity:1;stroke-dasharray:none"
                   d="m 49.14929,-385.11394 -98.29858,0 c -2.20094,0 -3.98511,-1.78416 -3.98511,-3.9851 l 0,-15.51279 c 0,-2.20094 1.78417,-3.98511 3.98511,-3.98511 l 98.29858,0 c 2.20094,0 3.98511,1.78417 3.98511,3.98511 l 0,15.51279 c 0,2.20094 -1.78417,3.9851 -3.98511,3.9851 z" />
                <g
                   transform="translate(-49.813,-394.197)"
                   id="g3574">
                  <g
                     transform="translate(23.107,0)"
                     id="g3576">
                    <g
                       transform="translate(-422.816,-330.321)"
                       id="g3578">
                      <text
                         id="text3580"
                         transform="matrix(1,0,0,-1,422.816,330.321)">
                        <tspan
                           id="tspan3582"
                           sodipodi:role="line"
                           y="0"
                           x="0 4.9812999 9.4046946 14.385994 18.809389 22.126934 26.550329 29.319931 37.060871 42.042171 46.216503"
                           style="font-size:9.96259975px;font-variant:normal;writing-mode:lr-tb;fill:#000000;fill-opacity:1;fill-rule:nonzero;stroke:none;font-family:Nimbus Roman No9 L;-inkscape-font-specification:NimbusRomNo9L-Regu">generatenew</tspan>
                        <tspan
                           id="tspan3584"
                           sodipodi:role="line"
                           y="10.959"
                           x="-6.2270002 -2.9094541 1.5139402 6.4952402 11.476541 16.45784 27.526289 31.401741 36.383041 39.152641 44.133942 46.903545 49.673149 54.654449"
                           style="font-size:9.96259975px;font-variant:normal;writing-mode:lr-tb;fill:#000000;fill-opacity:1;fill-rule:nonzero;stroke:none;font-family:Nimbus Roman No9 L;-inkscape-font-specification:NimbusRomNo9L-Regu">randomsolution</tspan>
                      </text>
                      <g
                         transform="translate(399.709,330.321)"
                         id="g3586" />
                    </g>
                  </g>
                  <g
                     transform="translate(49.813,394.197)"
                     id="g3588" />
                </g>
              </g>
              <g
                 transform="translate(-6.6897441,0.5907391)"
                 id="g3590">
                <path
                   inkscape:connector-curvature="0"
                   id="path3592"
                   style="fill:none;stroke:#000000;stroke-width:0.3985;stroke-linecap:butt;stroke-linejoin:miter;stroke-miterlimit:10;stroke-opacity:1;stroke-dasharray:none"
                   d="m -54.14967,-56.69363 c 0,5.56326 -13.83005,10.07304 -30.89078,10.07304 -17.06073,0 -30.89079,-4.50978 -30.89079,-10.07304 0,-5.56325 13.83006,-10.07305 30.89079,-10.07305 17.06073,0 30.89078,4.5098 30.89078,10.07305 z" />
                <g
                   transform="translate(-103.562,-60.38)"
                   id="g3594">
                  <g
                     id="g3596">
                    <text
                       transform="scale(1,-1)"
                       sodipodi:linespacing="125%"
                       id="text4678"
                       y="0.085447945"
                       x="0.38589317"
                       style="font-size:11.19999981px;font-style:normal;font-variant:normal;font-weight:normal;font-stretch:normal;line-height:125%;letter-spacing:0px;word-spacing:0px;fill:#000000;fill-opacity:1;stroke:none;font-family:Nimbus Roman No9 L;-inkscape-font-specification:Nimbus Roman No9 L"
                       xml:space="preserve"><tspan
                         y="0.085447945"
                         x="0.38589317"
                         id="tspan4680"
                         sodipodi:role="line"><tspan
   id="tspan4682"
   style="font-style:italic;-inkscape-font-specification:Nimbus Roman No9 L Italic">K'</tspan> times</tspan></text>
                  </g>
                  <g
                     transform="translate(103.562,60.38)"
                     id="g3614" />
                </g>
              </g>
              <g
                 transform="translate(0,45.008408)"
                 id="g3616">
                <path
                   inkscape:connector-curvature="0"
                   id="path3618"
                   style="fill:none;stroke:#000000;stroke-width:0.3985;stroke-linecap:butt;stroke-linejoin:miter;stroke-miterlimit:10;stroke-opacity:1;stroke-dasharray:none"
                   d="m 49.14929,-445.75282 -98.29858,0 c -2.20094,0 -3.98511,-1.78417 -3.98511,-3.98511 l 0,-7.62228 c 0,-2.20095 1.78417,-3.98511 3.98511,-3.98511 l 98.29858,0 c 2.20094,0 3.98511,1.78416 3.98511,3.98511 l 0,7.62228 c 0,2.20094 -1.78417,3.98511 -3.98511,3.98511 z" />
                <g
                   transform="translate(-49.813,-455.862)"
                   id="g3620">
                  <g
                     transform="translate(22.753,0)"
                     id="g3622">
                    <g
                       transform="translate(-422.462,-268.656)"
                       id="g3624">
                      <text
                         id="text3626"
                         transform="matrix(1,0,0,-1,422.462,268.656)">
                        <tspan
                           id="tspan3628"
                           sodipodi:role="line"
                           y="0"
                           x="0 3.3175459 7.7409401 12.72224 15.491843 19.915237 24.338633 32.079571 39.172943 44.154243 47.47179 51.34724"
                           style="font-size:9.96259975px;font-variant:normal;writing-mode:lr-tb;fill:#000000;fill-opacity:1;fill-rule:nonzero;stroke:none;font-family:Nimbus Roman No9 L;-inkscape-font-specification:NimbusRomNo9L-Regu">replaceworst</tspan>
                      </text>
                      <g
                         transform="translate(399.709,268.656)"
                         id="g3630" />
                    </g>
                  </g>
                  <g
                     transform="translate(49.813,455.862)"
                     id="g3632" />
                </g>
              </g>
              <path
                 sodipodi:nodetypes="cc"
                 inkscape:connector-curvature="0"
                 id="path3634"
                 style="fill:none;stroke:#000000;stroke-width:0.3985;stroke-linecap:butt;stroke-linejoin:miter;stroke-miterlimit:10;stroke-opacity:1;stroke-dasharray:none"
                 d="M 0,-20.969095 0,-35.86113" />
              <g
                 transform="matrix(0,-1,1,0,0,-35.86113)"
                 id="g3636">
                <g
                   id="g3638">
                  <path
                     inkscape:connector-curvature="0"
                     id="path3640"
                     style="fill:#000000;fill-opacity:1;fill-rule:nonzero;stroke:none"
                     d="m 2.39102,0 c -0.99626,0.19925 -2.78952,0.59775 -3.98503,1.49438 0.99626,-1.09588 0.99626,-1.89288 0,-2.98876 C -0.3985,-0.59775 1.39476,-0.19925 2.39102,0" />
                </g>
              </g>
              <path
                 inkscape:connector-curvature="0"
                 id="path3674"
                 style="fill:none;stroke:#000000;stroke-width:0.3985;stroke-linecap:butt;stroke-linejoin:miter;stroke-miterlimit:10;stroke-opacity:1;stroke-dasharray:none"
                 d="m 0,-140.48161 0,-13.73323" />
              <g
                 transform="matrix(0,-1,1,0,0,-154.21484)"
                 id="g3676">
                <g
                   id="g3678">
                  <path
                     inkscape:connector-curvature="0"
                     id="path3680"
                     style="fill:#000000;fill-opacity:1;fill-rule:nonzero;stroke:none"
                     d="m 2.39102,0 c -0.99626,0.19925 -2.78952,0.59775 -3.98503,1.49438 0.99626,-1.09588 0.99626,-1.89288 0,-2.98876 C -0.3985,-0.59775 1.39476,-0.19925 2.39102,0" />
                </g>
              </g>
              <g
                 id="g3682">
                <g
                   transform="translate(3.52,-146.72)"
                   id="g3684">
                  <g
                     id="g3686">
                    <g
                       transform="translate(-453.042,-577.798)"
                       id="g3688">
                      <text
                         id="text3690"
                         transform="matrix(1,0,0,-1,453.042,577.798)">
                        <tspan
                           id="tspan3692"
                           sodipodi:role="line"
                           y="0"
                           x="0 4.9812999"
                           style="font-size:9.96259975px;font-variant:normal;writing-mode:lr-tb;fill:#000000;fill-opacity:1;fill-rule:nonzero;stroke:none;font-family:Nimbus Roman No9 L;-inkscape-font-specification:NimbusRomNo9L-Regu">no</tspan>
                      </text>
                      <g
                         transform="translate(453.042,577.798)"
                         id="g3694" />
                    </g>
                  </g>
                  <g
                     transform="translate(-3.52,146.72)"
                     id="g3696" />
                </g>
              </g>
              <path
                 sodipodi:nodetypes="cc"
                 inkscape:connector-curvature="0"
                 id="path3698"
                 style="fill:none;stroke:#000000;stroke-width:0.3985;stroke-linecap:butt;stroke-linejoin:miter;stroke-miterlimit:10;stroke-opacity:1;stroke-dasharray:none"
                 d="m 0,-246.43159 0,-10.35542" />
              <g
                 transform="matrix(0,-1,1,0,0,-257.38125)"
                 id="g3700">
                <g
                   id="g3702">
                  <path
                     inkscape:connector-curvature="0"
                     id="path3704"
                     style="fill:#000000;fill-opacity:1;fill-rule:nonzero;stroke:none"
                     d="m 2.39102,0 c -0.99626,0.19925 -2.78952,0.59775 -3.98503,1.49438 0.99626,-1.09588 0.99626,-1.89288 0,-2.98876 C -0.3985,-0.59775 1.39476,-0.19925 2.39102,0" />
                </g>
              </g>
              <g
                 transform="translate(-0.47539016,15.45018)"
                 id="g3706">
                <g
                   transform="translate(3.52,-268.076)"
                   id="g3708">
                  <g
                     id="g3710">
                    <g
                       transform="translate(-453.042,-456.442)"
                       id="g3712">
                      <text
                         id="text3714"
                         transform="matrix(1,0,0,-1,453.042,456.442)">
                        <tspan
                           id="tspan3716"
                           sodipodi:role="line"
                           y="0"
                           x="0 4.9812999"
                           style="font-size:9.96259975px;font-variant:normal;writing-mode:lr-tb;fill:#000000;fill-opacity:1;fill-rule:nonzero;stroke:none;font-family:Nimbus Roman No9 L;-inkscape-font-specification:NimbusRomNo9L-Regu">no</tspan>
                      </text>
                      <g
                         transform="translate(453.042,456.442)"
                         id="g3718" />
                    </g>
                  </g>
                  <g
                     transform="translate(-3.52,268.076)"
                     id="g3720" />
                </g>
              </g>
              <path
                 sodipodi:nodetypes="cc"
                 inkscape:connector-curvature="0"
                 id="path3722"
                 style="color:#000000;fill:none;stroke:#000000;stroke-width:0.3985;stroke-linecap:butt;stroke-linejoin:miter;stroke-miterlimit:10;stroke-opacity:1;stroke-dasharray:none;stroke-dashoffset:0;marker:none;visibility:visible;display:inline;overflow:visible;enable-background:accumulate"
                 d="m 0,-349.97111 0,-9.68196" />
              <g
                 transform="matrix(0,-1,1,0,0,-367.21648)"
                 id="g3724">
                <g
                   id="g3726">
                  <path
                     inkscape:connector-curvature="0"
                     id="path3728"
                     style="fill:#000000;fill-opacity:1;fill-rule:nonzero;stroke:none"
                     d="m -4.6681637,0 c -0.99626,0.19925 -2.78952,0.59775 -3.98503,1.49438 0.99626,-1.09588 0.99626,-1.89288 0,-2.98876 1.19551,0.89663 2.98877,1.29513 3.98503,1.49438" />
                </g>
              </g>
              <g
                 transform="translate(0,27.912879)"
                 id="g3730">
                <g
                   transform="translate(3.52,-381.846)"
                   id="g3732">
                  <g
                     id="g3734">
                    <g
                       transform="translate(-453.042,-342.672)"
                       id="g3736">
                      <text
                         id="text3738"
                         transform="matrix(1,0,0,-1,453.042,342.672)">
                        <tspan
                           id="tspan3740"
                           sodipodi:role="line"
                           y="0"
                           x="0 4.9812999"
                           style="font-size:9.96259975px;font-variant:normal;writing-mode:lr-tb;fill:#000000;fill-opacity:1;fill-rule:nonzero;stroke:none;font-family:Nimbus Roman No9 L;-inkscape-font-specification:NimbusRomNo9L-Regu">no</tspan>
                      </text>
                      <g
                         transform="translate(453.042,342.672)"
                         id="g3742" />
                    </g>
                  </g>
                  <g
                     transform="translate(-3.52,381.846)"
                     id="g3744" />
                </g>
              </g>
              <path
                 inkscape:connector-curvature="0"
                 id="path3746"
                 style="fill:none;stroke:#000000;stroke-width:0.3985;stroke-linecap:butt;stroke-linejoin:miter;stroke-miterlimit:10;stroke-opacity:1;stroke-dasharray:none"
                 d="m 0,-75.1351 0,-8.767" />
              <g
                 transform="matrix(0,-1,1,0,0,-83.9021)"
                 id="g3748">
                <g
                   id="g3750">
                  <path
                     inkscape:connector-curvature="0"
                     id="path3752"
                     style="fill:#000000;fill-opacity:1;fill-rule:nonzero;stroke:none"
                     d="m 2.39102,0 c -0.99626,0.19925 -2.78952,0.59775 -3.98503,1.49438 0.99626,-1.09588 0.99626,-1.89288 0,-2.98876 C -0.3985,-0.59775 1.39476,-0.19925 2.39102,0" />
                </g>
              </g>
              <path
                 sodipodi:nodetypes="cc"
                 inkscape:connector-curvature="0"
                 id="path3754"
                 style="fill:none;stroke:#000000;stroke-width:0.3985;stroke-linecap:butt;stroke-linejoin:miter;stroke-miterlimit:10;stroke-opacity:1;stroke-dasharray:none"
                 d="m 0,-183.55591 0,-6.04632" />
              <g
                 transform="matrix(0,-1,1,0,0,-189.95877)"
                 id="g3756">
                <g
                   id="g3758">
                  <path
                     inkscape:connector-curvature="0"
                     id="path3760"
                     style="fill:#000000;fill-opacity:1;fill-rule:nonzero;stroke:none"
                     d="m 2.39102,0 c -0.99626,0.19925 -2.78952,0.59775 -3.98503,1.49438 0.99626,-1.09588 0.99626,-1.89288 0,-2.98876 C -0.3985,-0.59775 1.39476,-0.19925 2.39102,0" />
                </g>
              </g>
              <path
                 sodipodi:nodetypes="cc"
                 inkscape:connector-curvature="0"
                 id="path3762"
                 style="fill:none;stroke:#000000;stroke-width:0.3985;stroke-linecap:butt;stroke-linejoin:miter;stroke-miterlimit:10;stroke-opacity:1;stroke-dasharray:none"
                 d="m 0,-286.00922 0,-8.74774" />
              <g
                 transform="matrix(0,-1,1,0,0,-280.43818)"
                 id="g3764">
                <g
                   transform="translate(13.782216,0)"
                   id="g3766">
                  <path
                     inkscape:connector-curvature="0"
                     id="path3768"
                     style="fill:#000000;fill-opacity:1;fill-rule:nonzero;stroke:none"
                     d="m 2.39102,0 c -0.99626,0.19925 -2.78952,0.59775 -3.98503,1.49438 0.99626,-1.09588 0.99626,-1.89288 0,-2.98876 C -0.3985,-0.59775 1.39476,-0.19925 2.39102,0" />
                </g>
              </g>
              <path
                 sodipodi:nodetypes="ccc"
                 inkscape:connector-curvature="0"
                 id="path3770"
                 style="fill:none;stroke:#000000;stroke-width:0.3985;stroke-linecap:butt;stroke-linejoin:miter;stroke-miterlimit:10;stroke-opacity:1;stroke-dasharray:none"
                 d="m -93.122083,-46.42133 0,39.0527826 37.397393,0" />
              <g
                 transform="translate(-55.72469,-7.3541288)"
                 id="g3772">
                <g
                   id="g3774">
                  <path
                     inkscape:connector-curvature="0"
                     id="path3776"
                     style="fill:#000000;fill-opacity:1;fill-rule:nonzero;stroke:none"
                     d="m 2.39102,0 c -0.99626,0.19925 -2.78952,0.59775 -3.98503,1.49438 0.99626,-1.09588 0.99626,-1.89288 0,-2.98876 C -0.3985,-0.59775 1.39476,-0.19925 2.39102,0" />
                </g>
              </g>
              <path
                 sodipodi:nodetypes="cc"
                 inkscape:connector-curvature="0"
                 id="path3722-1"
                 style="color:#000000;fill:none;stroke:#000000;stroke-width:0.3985;stroke-linecap:butt;stroke-linejoin:miter;stroke-miterlimit:10;stroke-opacity:1;stroke-dasharray:none;stroke-dashoffset:0;marker:none;visibility:visible;display:inline;overflow:visible;enable-background:accumulate"
                 d="m 4e-6,-385.77126 0,-11.95098" />
              <g
                 transform="matrix(0,-1,1,0,4e-6,-405.45373)"
                 id="g3724-9">
                <g
                   id="g3726-5">
                  <path
                     inkscape:connector-curvature="0"
                     id="path3728-1"
                     style="fill:#000000;fill-opacity:1;fill-rule:nonzero;stroke:none"
                     d="m -4.6681637,0 c -0.99626,0.19925 -2.78952,0.59775 -3.98503,1.49438 0.99626,-1.09588 0.99626,-1.89288 0,-2.98876 1.19551,0.89663 2.98877,1.29513 3.98503,1.49438" />
                </g>
              </g>
              <g
                 id="g3434-2"
                 transform="translate(3.9977352e-6,-106.01201)">
                <g
                   id="g3436-4">
                  <path
                     id="path3438-2"
                     style="fill:#f2f2f2;fill-opacity:1;fill-rule:nonzero;stroke:#000000;stroke-width:0.3985;stroke-linecap:butt;stroke-linejoin:miter;stroke-miterlimit:10;stroke-opacity:1;stroke-dasharray:none"
                     d="M 26.80937,-113.38727 0,-86.5779 -26.80937,-113.38727 0,-140.19664 l 26.80937,26.80937 z"
                     inkscape:connector-curvature="0" />
                </g>
                <g
                   transform="translate(-22.416,-115.704)"
                   id="g3440-0">
                  <g
                     transform="translate(1.26,0)"
                     id="g3442-3">
                    <g
                       transform="translate(-428.366,-608.814)"
                       id="g3444-7">
                      <text
                         id="text3446-1"
                         transform="matrix(1,0,0,-1,428.366,608.814)">
                        <tspan
                           id="tspan3448-8"
                           sodipodi:role="line"
                           y="0"
                           x="0 2.7696028 10.520506 15.501805 18.819351 23.651213 28.483074 32.906467 37.887768"
                           style="font-size:9.96259975px;font-variant:normal;writing-mode:lr-tb;fill:#000000;fill-opacity:1;fill-rule:nonzero;stroke:none;font-family:Nimbus Roman No9 L;-inkscape-font-specification:NimbusRomNo9L-Regu">improved?</tspan>
                      </text>
                      <g
                         transform="translate(427.106,608.814)"
                         id="g3450-8" />
                    </g>
                  </g>
                  <g
                     transform="translate(22.416,115.704)"
                     id="g3452-2" />
                </g>
              </g>
              <g
                 id="g3434-2-0"
                 transform="translate(3.9977352e-6,-209.64707)">
                <g
                   id="g3436-4-7">
                  <path
                     id="path3438-2-4"
                     style="fill:#f2f2f2;fill-opacity:1;fill-rule:nonzero;stroke:#000000;stroke-width:0.3985;stroke-linecap:butt;stroke-linejoin:miter;stroke-miterlimit:10;stroke-opacity:1;stroke-dasharray:none"
                     d="M 26.80937,-113.38727 0,-86.5779 -26.80937,-113.38727 0,-140.19664 l 26.80937,26.80937 z"
                     inkscape:connector-curvature="0" />
                </g>
                <g
                   transform="translate(-22.416,-115.704)"
                   id="g3440-0-2">
                  <g
                     transform="translate(1.26,0)"
                     id="g3442-3-4">
                    <g
                       transform="translate(-428.366,-608.814)"
                       id="g3444-7-9">
                      <text
                         id="text3446-1-8"
                         transform="matrix(1,0,0,-1,428.366,608.814)">
                        <tspan
                           id="tspan3448-8-7"
                           sodipodi:role="line"
                           y="0"
                           x="0 2.7696028 10.520506 15.501805 18.819351 23.651213 28.483074 32.906467 37.887768"
                           style="font-size:9.96259975px;font-variant:normal;writing-mode:lr-tb;fill:#000000;fill-opacity:1;fill-rule:nonzero;stroke:none;font-family:Nimbus Roman No9 L;-inkscape-font-specification:NimbusRomNo9L-Regu">improved?</tspan>
                      </text>
                      <g
                         transform="translate(427.106,608.814)"
                         id="g3450-8-0" />
                    </g>
                  </g>
                  <g
                     transform="translate(22.416,115.704)"
                     id="g3452-2-3" />
                </g>
              </g>
              <path
                 sodipodi:nodetypes="ccc"
                 inkscape:connector-curvature="0"
                 id="path3762-9"
                 style="fill:none;stroke:#000000;stroke-width:0.3985;stroke-linecap:butt;stroke-linejoin:miter;stroke-miterlimit:10;stroke-opacity:1;stroke-dasharray:none"
                 d="m 26.10585,-323.05101 58.067088,0 -0.01829,-84.8962" />
              <g
                 transform="matrix(-1,0,0,-1,69.223733,-407.94978)"
                 id="g3764-3">
                <g
                   transform="translate(13.782216,0)"
                   id="g3766-6">
                  <path
                     inkscape:connector-curvature="0"
                     id="path3768-4"
                     style="fill:#000000;fill-opacity:1;fill-rule:nonzero;stroke:none"
                     d="m 2.39102,0 c -0.99626,0.19925 -2.78952,0.59775 -3.98503,1.49438 0.99626,-1.09588 0.99626,-1.89288 0,-2.98876 C -0.3985,-0.59775 1.39476,-0.19925 2.39102,0" />
                </g>
              </g>
              <g
                 transform="translate(37.313802,60.485249)"
                 id="g3730-5">
                <g
                   transform="translate(3.52,-381.846)"
                   id="g3732-7">
                  <g
                     id="g3734-9">
                    <g
                       transform="translate(-453.042,-342.672)"
                       id="g3736-3">
                      <text
                         y="-345.02505"
                         x="458.92465"
                         id="text3738-8"
                         transform="scale(1,-1)">
                        <tspan
                           y="-345.02505"
                           x="458.92465"
                           id="tspan3740-2"
                           sodipodi:role="line"
                           style="font-size:9.96259975px;font-variant:normal;writing-mode:lr-tb;fill:#000000;fill-opacity:1;fill-rule:nonzero;stroke:none;font-family:Nimbus Roman No9 L;-inkscape-font-specification:NimbusRomNo9L-Regu">yes</tspan>
                      </text>
                      <g
                         transform="translate(453.042,342.672)"
                         id="g3742-5" />
                    </g>
                  </g>
                  <g
                     transform="translate(-3.52,381.846)"
                     id="g3744-2" />
                </g>
              </g>
              <path
                 sodipodi:nodetypes="cc"
                 inkscape:connector-curvature="0"
                 id="path3722-1-7"
                 style="color:#000000;fill:none;stroke:#000000;stroke-width:0.3985;stroke-linecap:butt;stroke-linejoin:miter;stroke-miterlimit:10;stroke-opacity:1;stroke-dasharray:none;stroke-dashoffset:0;marker:none;visibility:visible;display:inline;overflow:visible;enable-background:accumulate"
                 d="m 55.071539,-407.90816 29.08243,0" />
              <path
                 sodipodi:nodetypes="ccc"
                 inkscape:connector-curvature="0"
                 id="path3762-9-2"
                 style="fill:none;stroke:#000000;stroke-width:0.3985;stroke-linecap:butt;stroke-linejoin:miter;stroke-miterlimit:10;stroke-opacity:1;stroke-dasharray:none"
                 d="m 26.105856,-219.51632 58.106117,0 -0.0183,-103.88877" />
              <path
                 sodipodi:nodetypes="ccc"
                 inkscape:connector-curvature="0"
                 id="path3762-9-2-1"
                 style="fill:none;stroke:#000000;stroke-width:0.3985;stroke-linecap:butt;stroke-linejoin:miter;stroke-miterlimit:10;stroke-opacity:1;stroke-dasharray:none"
                 d="m 26.105856,-113.50432 58.136978,0 -0.0183,-105.98972" />
              <g
                 transform="translate(37.313802,164.59569)"
                 id="g3730-5-4">
                <g
                   transform="translate(3.52,-381.846)"
                   id="g3732-7-6">
                  <g
                     id="g3734-9-9">
                    <g
                       transform="translate(-453.042,-342.672)"
                       id="g3736-3-4">
                      <text
                         y="-345.02505"
                         x="458.92465"
                         id="text3738-8-0"
                         transform="scale(1,-1)">
                        <tspan
                           y="-345.02505"
                           x="458.92465"
                           id="tspan3740-2-2"
                           sodipodi:role="line"
                           style="font-size:9.96259975px;font-variant:normal;writing-mode:lr-tb;fill:#000000;fill-opacity:1;fill-rule:nonzero;stroke:none;font-family:Nimbus Roman No9 L;-inkscape-font-specification:NimbusRomNo9L-Regu">yes</tspan>
                      </text>
                      <g
                         transform="translate(453.042,342.672)"
                         id="g3742-5-1" />
                    </g>
                  </g>
                  <g
                     transform="translate(-3.52,381.846)"
                     id="g3744-2-4" />
                </g>
              </g>
              <g
                 transform="translate(37.313802,270.84539)"
                 id="g3730-5-4-4">
                <g
                   transform="translate(3.52,-381.846)"
                   id="g3732-7-6-7">
                  <g
                     id="g3734-9-9-3">
                    <g
                       transform="translate(-453.042,-342.672)"
                       id="g3736-3-4-2">
                      <text
                         y="-345.02505"
                         x="458.92465"
                         id="text3738-8-0-5"
                         transform="scale(1,-1)">
                        <tspan
                           y="-345.02505"
                           x="458.92465"
                           id="tspan3740-2-2-3"
                           sodipodi:role="line"
                           style="font-size:9.96259975px;font-variant:normal;writing-mode:lr-tb;fill:#000000;fill-opacity:1;fill-rule:nonzero;stroke:none;font-family:Nimbus Roman No9 L;-inkscape-font-specification:NimbusRomNo9L-Regu">yes</tspan>
                      </text>
                      <g
                         transform="translate(453.042,342.672)"
                         id="g3742-5-1-5" />
                    </g>
                  </g>
                  <g
                     transform="translate(-3.52,381.846)"
                     id="g3744-2-4-6" />
                </g>
              </g>
              <path
                 sodipodi:nodetypes="ccc"
                 inkscape:connector-curvature="0"
                 id="path3770-7"
                 style="fill:none;stroke:#000000;stroke-width:0.3985;stroke-linecap:butt;stroke-linejoin:miter;stroke-miterlimit:10;stroke-opacity:1;stroke-dasharray:none"
                 d="m -53.313371,-408.57712 -39.05278,0 -0.462208,342.597875" />
            </g>
          </g>
        </g>
      </g>
    </g>
    <g
       transform="translate(627.54174,422.54021)"
       id="layer1-5"
       inkscape:label="Camada 1">
      <g
         id="g3198"
         transform="matrix(1.25,0,0,-1.25,-470.55867,-346.51476)">
        <g
           id="g3200">
          <g
             id="g3202">
            <path
               id="path3204"
               style="fill:none;stroke:#000000;stroke-width:0.3985;stroke-linecap:butt;stroke-linejoin:miter;stroke-miterlimit:10;stroke-opacity:1;stroke-dasharray:none"
               d="m 49.14929,7.79623 -98.29858,0 c -2.20094,0 -3.98511,-1.78416 -3.98511,-3.9851 l 0,-7.62226 c 0,-2.20094 1.78417,-3.9851 3.98511,-3.9851 l 98.29858,0 c 2.20094,0 3.98511,1.78416 3.98511,3.9851 l 0,7.62226 c 0,2.20094 -1.78417,3.9851 -3.98511,3.9851 z"
               inkscape:connector-curvature="0" />
            <g
               transform="translate(-49.813,-2.319)"
               id="g3206">
              <g
                 transform="translate(9.409,0)"
                 id="g3208">
                <g
                   transform="translate(-137.104,-290.996)"
                   id="g3210">
                  <text
                     id="text3212"
                     transform="matrix(1,0,0,-1,137.104,290.996)">
                    <tspan
                       id="tspan3214"
                       sodipodi:role="line"
                       y="0"
                       x="0 2.7696028 7.7509027 10.520506 13.290109 16.059711 20.483105 23.252708 26.02231 30.445705 38.186646 43.167946 48.149246 53.130547 58.111847 60.881447 65.30484 68.074448 70.844048 75.825348"
                       style="font-size:9.96259975px;font-variant:normal;writing-mode:lr-tb;fill:#000000;fill-opacity:1;fill-rule:nonzero;stroke:none;font-family:Nimbus Roman No9 L;-inkscape-font-specification:NimbusRomNo9L-Regu">initializepopulation</tspan>
                  </text>
                  <g
                     transform="translate(127.695,290.996)"
                     id="g3216" />
                </g>
              </g>
              <g
                 transform="translate(49.813,2.319)"
                 id="g3218" />
            </g>
          </g>
          <g
             id="g3220">
            <path
               id="path3222"
               style="fill:none;stroke:#000000;stroke-width:0.3985;stroke-linecap:butt;stroke-linejoin:miter;stroke-miterlimit:10;stroke-opacity:1;stroke-dasharray:none"
               d="m 49.14929,-43.41786 -98.29858,0 c -2.20094,0 -3.98511,-1.78417 -3.98511,-3.98511 l 0,-18.58131 c 0,-2.20095 1.78417,-3.98511 3.98511,-3.98511 l 98.29858,0 c 2.20094,0 3.98511,1.78416 3.98511,3.98511 l 0,18.58131 c 0,2.20094 -1.78417,3.98511 -3.98511,3.98511 z"
               inkscape:connector-curvature="0" />
            <g
               transform="translate(-49.813,-53.532)"
               id="g3224">
              <g
                 transform="translate(19.371,0)"
                 id="g3226">
                <g
                   transform="translate(-147.066,-239.783)"
                   id="g3228">
                  <g
                     transform="translate(127.695,239.783)"
                     id="g3236" />
                  <flowRoot
                     transform="matrix(0.8,0,0,-0.8,63.351752,301.315)"
                     style="font-size:14px;font-style:normal;font-variant:normal;font-weight:normal;font-stretch:normal;line-height:125%;letter-spacing:0px;word-spacing:0px;fill:#000000;fill-opacity:1;stroke:none;font-family:Nimbus Roman No9 L;-inkscape-font-specification:Nimbus Roman No9 L"
                     id="flowRoot4165"
                     xml:space="preserve"><flowRegion
                       id="flowRegion4167"><rect
                         style="font-size:14px;font-style:normal;font-variant:normal;font-weight:normal;font-stretch:normal;font-family:Nimbus Roman No9 L;-inkscape-font-specification:Nimbus Roman No9 L"
                         y="72.047989"
                         x="88.214287"
                         height="52.857143"
                         width="115"
                         id="rect4169" /></flowRegion><flowPara
                       id="flowPara4171" /></flowRoot>                  <flowRoot
                     transform="matrix(0.8,0,0,-0.8,63.351752,301.315)"
                     style="font-size:14px;font-style:normal;font-variant:normal;font-weight:normal;font-stretch:normal;line-height:125%;letter-spacing:0px;word-spacing:0px;fill:#000000;fill-opacity:1;stroke:none;font-family:Nimbus Roman No9 L;-inkscape-font-specification:Nimbus Roman No9 L"
                     id="flowRoot4173"
                     xml:space="preserve"><flowRegion
                       id="flowRegion4175"><rect
                         style="font-size:14px;font-style:normal;font-variant:normal;font-weight:normal;font-stretch:normal;font-family:Nimbus Roman No9 L;-inkscape-font-specification:Nimbus Roman No9 L"
                         y="70.262276"
                         x="81.071426"
                         height="57.142857"
                         width="138.21428"
                         id="rect4177" /></flowRegion><flowPara
                       id="flowPara4179" /></flowRoot>                  <text
                     transform="scale(1,-1)"
                     sodipodi:linespacing="125%"
                     id="text4181"
                     y="-241.10518"
                     x="176.42171"
                     style="font-size:11.19999981px;font-style:normal;font-variant:normal;font-weight:normal;font-stretch:normal;text-align:center;line-height:125%;letter-spacing:0px;word-spacing:0px;text-anchor:middle;fill:#000000;fill-opacity:1;stroke:none;font-family:Nimbus Roman No9 L;-inkscape-font-specification:Nimbus Roman No9 L"
                     xml:space="preserve"><tspan
                       style="font-size:10px"
                       y="-241.10518"
                       x="176.42171"
                       id="tspan4183"
                       sodipodi:role="line">sort population</tspan><tspan
                       style="font-size:10px"
                       id="tspan4185"
                       y="-228.60518"
                       x="176.42171"
                       sodipodi:role="line">by fitness</tspan></text>
                </g>
              </g>
              <g
                 transform="translate(49.813,53.532)"
                 id="g3238" />
            </g>
          </g>
          <g
             id="g3240">
            <path
               id="path3242"
               style="fill:none;stroke:#000000;stroke-width:0.3985;stroke-linecap:butt;stroke-linejoin:miter;stroke-miterlimit:10;stroke-opacity:1;stroke-dasharray:none"
               d="m 49.14929,-105.58434 -98.29858,0 c -2.20094,0 -3.98511,-1.78416 -3.98511,-3.9851 l 0,-7.63566 c 0,-2.20094 1.78417,-3.9851 3.98511,-3.9851 l 98.29858,0 c 2.20094,0 3.98511,1.78416 3.98511,3.9851 l 0,7.63566 c 0,2.20094 -1.78417,3.9851 -3.98511,3.9851 z"
               inkscape:connector-curvature="0" />
            <g
               transform="translate(-49.813,-115.711)"
               id="g3244">
              <g
                 transform="translate(6.527,0)"
                 id="g3246">
                <g
                   transform="translate(-134.222,-177.604)"
                   id="g3248">
                  <text
                     id="text3250"
                     transform="matrix(1,0,0,-1,134.222,177.604)">
                    <tspan
                       id="tspan3252"
                       sodipodi:role="line"
                       y="0"
                       x="0 3.8754513"
                       style="font-size:9.96259975px;font-variant:normal;writing-mode:lr-tb;fill:#000000;fill-opacity:1;fill-rule:nonzero;stroke:none;font-family:Nimbus Roman No9 L;-inkscape-font-specification:NimbusRomNo9L-Regu">shuffle</tspan>
                  </text>
                  <text
                     id="text3254"
                     transform="matrix(1,0,0,-1,164.411,177.604)">
                    <tspan
                       id="tspan3256"
                       y="0"
                       x="0"
                       style="font-size:9.96259975px;font-variant:normal;font-weight:normal;writing-mode:lr-tb;fill:#000000;fill-opacity:1;fill-rule:nonzero;stroke:none;font-family:CMMI10;-inkscape-font-specification:CMMI10">N</tspan>
                  </text>
                  <text
                     id="text3258"
                     transform="matrix(1,0,0,-1,178.483,177.604)">
                    <tspan
                       id="tspan3260"
                       sodipodi:role="line"
                       y="0"
                       x="0 4.4233942 9.4046946 17.155598 22.136898 24.9065 29.180456 34.012318 38.435711"
                       style="font-size:9.96259975px;font-variant:normal;writing-mode:lr-tb;fill:#000000;fill-opacity:1;fill-rule:nonzero;stroke:none;font-family:Nimbus Roman No9 L;-inkscape-font-specification:NimbusRomNo9L-Regu">complexes</tspan>
                  </text>
                  <g
                     transform="translate(127.695,177.604)"
                     id="g3262" />
                </g>
              </g>
              <g
                 transform="translate(49.813,115.711)"
                 id="g3264" />
            </g>
          </g>
          <g
             id="g3266">
            <g
               id="g3268">
              <path
                 id="path3270"
                 style="fill:#f2f2f2;fill-opacity:1;fill-rule:nonzero;stroke:#000000;stroke-width:0.3985;stroke-linecap:butt;stroke-linejoin:miter;stroke-miterlimit:10;stroke-opacity:1;stroke-dasharray:none"
                 d="m 27.06851,-170.0809 c 0,14.94972 -12.11881,27.06853 -27.06851,27.06853 -14.9497,0 -27.06851,-12.11881 -27.06851,-27.06853 0,-14.94971 12.11881,-27.06851 27.06851,-27.06851 14.9497,0 27.06851,12.1188 27.06851,27.06851 z"
                 inkscape:connector-curvature="0" />
            </g>
            <g
               transform="translate(-22.416,-161.439)"
               id="g3272">
              <g
                 transform="translate(9.435,0)"
                 id="g3274">
                <g
                   transform="translate(-164.527,-131.876)"
                   id="g3276">
                  <text
                     id="text3278"
                     transform="matrix(1,0,0,-1,164.527,131.876)">
                    <tspan
                       id="tspan3280"
                       sodipodi:role="line"
                       y="0"
                       x="0 4.1743293 8.956377 13.937677 16.707281 21.539141"
                       style="font-size:9.96259975px;font-variant:normal;writing-mode:lr-tb;fill:#000000;fill-opacity:1;fill-rule:nonzero;stroke:none;font-family:Nimbus Roman No9 L;-inkscape-font-specification:NimbusRomNo9L-Regu">evolve</tspan>
                    <tspan
                       id="tspan3282"
                       sodipodi:role="line"
                       y="10.959"
                       x="3.855 8.2783947 12.701789 17.125183"
                       style="font-size:9.96259975px;font-variant:normal;writing-mode:lr-tb;fill:#000000;fill-opacity:1;fill-rule:nonzero;stroke:none;font-family:Nimbus Roman No9 L;-inkscape-font-specification:NimbusRomNo9L-Regu">each</tspan>
                    <tspan
                       id="tspan3284"
                       sodipodi:role="line"
                       y="21.917"
                       x="-4.0999999 0.32339439 5.3046942 13.055597 18.036898 20.806499 25.080456"
                       style="font-size:9.96259975px;font-variant:normal;writing-mode:lr-tb;fill:#000000;fill-opacity:1;fill-rule:nonzero;stroke:none;font-family:Nimbus Roman No9 L;-inkscape-font-specification:NimbusRomNo9L-Regu">complex</tspan>
                  </text>
                  <g
                     transform="translate(155.092,131.876)"
                     id="g3286" />
                </g>
              </g>
              <g
                 transform="translate(22.416,161.439)"
                 id="g3288" />
            </g>
          </g>
          <g
             transform="translate(-10.101525,0)"
             id="g3290">
            <path
               id="path3292"
               style="fill:none;stroke:#000000;stroke-width:0.3985;stroke-linecap:butt;stroke-linejoin:miter;stroke-miterlimit:10;stroke-opacity:1;stroke-dasharray:none"
               d="m -56.1261,-113.38727 c 0,5.50237 -12.94519,9.96277 -28.91435,9.96277 -15.96916,0 -28.91437,-4.4604 -28.91437,-9.96277 0,-5.50235 12.94521,-9.96277 28.91437,-9.96277 15.96916,0 28.91435,4.46042 28.91435,9.96277 z"
               inkscape:connector-curvature="0" />
            <g
               transform="translate(-102.164,-116.733)"
               id="g3294">
              <g
                 id="g3296">
                <g
                   transform="translate(-75.344,-176.582)"
                   id="g3298">
                  <text
                     id="text3300"
                     transform="matrix(1,0,0,-1,75.344,176.582)">
                    <tspan
                       id="tspan3302"
                       y="0"
                       x="0"
                       style="font-size:9.96259975px;font-variant:normal;font-weight:normal;writing-mode:lr-tb;fill:#000000;fill-opacity:1;fill-rule:nonzero;stroke:none;font-family:CMMI10;-inkscape-font-specification:CMMI10">K</tspan>
                  </text>
                  <text
                     id="text3304"
                     transform="matrix(1,0,0,-1,88.005,176.582)">
                    <tspan
                       id="tspan3306"
                       sodipodi:role="line"
                       y="0"
                       x="0 2.7696028 5.5392056 13.290109 17.713503"
                       style="font-size:9.96259975px;font-variant:normal;writing-mode:lr-tb;fill:#000000;fill-opacity:1;fill-rule:nonzero;stroke:none;font-family:Nimbus Roman No9 L;-inkscape-font-specification:NimbusRomNo9L-Regu">times</tspan>
                  </text>
                  <g
                     transform="translate(75.344,176.582)"
                     id="g3308" />
                </g>
              </g>
              <g
                 transform="translate(102.164,116.733)"
                 id="g3310" />
            </g>
          </g>
          <g
             id="g3312">
            <path
               id="path3314"
               style="fill:none;stroke:#000000;stroke-width:0.3985;stroke-linecap:butt;stroke-linejoin:miter;stroke-miterlimit:10;stroke-opacity:1;stroke-dasharray:none"
               d="m 49.14929,-218.97829 -98.29858,0 c -2.20094,0 -3.98511,-1.78416 -3.98511,-3.98511 l 0,-7.62226 c 0,-2.20094 1.78417,-3.98511 3.98511,-3.98511 l 98.29858,0 c 2.20094,0 3.98511,1.78417 3.98511,3.98511 l 0,7.62226 c 0,2.20095 -1.78417,3.98511 -3.98511,3.98511 z"
               inkscape:connector-curvature="0" />
            <g
               transform="translate(-49.813,-229.09)"
               id="g3316">
              <g
                 transform="translate(14.119,0)"
                 id="g3318">
                <g
                   transform="translate(-141.814,-64.225)"
                   id="g3320">
                  <text
                     id="text3322"
                     transform="matrix(1,0,0,-1,141.814,64.225)">
                    <tspan
                       id="tspan3324"
                       sodipodi:role="line"
                       y="0"
                       x="0 3.3175459 7.7409401 10.510543 15.491843 18.809389 27.108234 32.089535 34.859138 39.840439 44.821739 49.245132 55.342243 60.323544 64.746941 68.622391"
                       style="font-size:9.96259975px;font-variant:normal;writing-mode:lr-tb;fill:#000000;fill-opacity:1;fill-rule:nonzero;stroke:none;font-family:Nimbus Roman No9 L;-inkscape-font-specification:NimbusRomNo9L-Regu">returnglobalbest</tspan>
                  </text>
                  <g
                     transform="translate(127.695,64.225)"
                     id="g3326" />
                </g>
              </g>
              <g
                 transform="translate(49.813,229.09)"
                 id="g3328" />
            </g>
          </g>
          <path
             id="path3330"
             style="fill:none;stroke:#000000;stroke-width:0.3985;stroke-linecap:butt;stroke-linejoin:miter;stroke-miterlimit:10;stroke-opacity:1;stroke-dasharray:none"
             d="m 0,-7.99548 0,-32.8321"
             inkscape:connector-curvature="0" />
          <g
             transform="matrix(0,-1,1,0,0,-40.82758)"
             id="g3332">
            <g
               id="g3334">
              <path
                 id="path3336"
                 style="fill:#000000;fill-opacity:1;fill-rule:nonzero;stroke:none"
                 d="m 2.39102,0 c -0.99626,0.19925 -2.78952,0.59775 -3.98503,1.49438 0.99626,-1.09588 0.99626,-1.89288 0,-2.98876 C -0.3985,-0.59775 1.39476,-0.19925 2.39102,0"
                 inkscape:connector-curvature="0" />
            </g>
          </g>
          <path
             sodipodi:nodetypes="ccc"
             id="path3338"
             style="fill:none;stroke:#000000;stroke-width:0.3985;stroke-linecap:butt;stroke-linejoin:miter;stroke-miterlimit:10;stroke-opacity:1;stroke-dasharray:none"
             d="m -27.26776,-170.0809 -68.278276,0 0,44.1406"
             inkscape:connector-curvature="0" />
          <g
             transform="matrix(0,1,-1,0,-85.04045,-125.9403)"
             id="g3340">
            <g
               id="g3342">
              <path
                 id="path3344"
                 style="fill:#000000;fill-opacity:1;fill-rule:nonzero;stroke:none"
                 d="m 2.39102,10.428571 c -0.99626,0.19925 -2.78952,0.59775 -3.98503,1.49438 0.99626,-1.09588 0.99626,-1.89288 0,-2.9887595 1.19551,0.89663 2.98877,1.2951295 3.98503,1.4943795"
                 inkscape:connector-curvature="0" />
            </g>
          </g>
          <path
             sodipodi:nodetypes="ccc"
             id="path3346"
             style="fill:none;stroke:#000000;stroke-width:0.3985;stroke-linecap:butt;stroke-linejoin:miter;stroke-miterlimit:10;stroke-opacity:1;stroke-dasharray:none"
             d="m -95.546036,-103.22523 0,46.5316 39.821346,0"
             inkscape:connector-curvature="0" />
          <g
             transform="translate(-55.72469,-56.69363)"
             id="g3348">
            <g
               id="g3350">
              <path
                 id="path3352"
                 style="fill:#000000;fill-opacity:1;fill-rule:nonzero;stroke:none"
                 d="m 2.39102,0 c -0.99626,0.19925 -2.78952,0.59775 -3.98503,1.49438 0.99626,-1.09588 0.99626,-1.89288 0,-2.98876 C -0.3985,-0.59775 1.39476,-0.19925 2.39102,0"
                 inkscape:connector-curvature="0" />
            </g>
          </g>
          <path
             id="path3354"
             style="fill:none;stroke:#000000;stroke-width:0.3985;stroke-linecap:butt;stroke-linejoin:miter;stroke-miterlimit:10;stroke-opacity:1;stroke-dasharray:none"
             d="m 0,-70.16864 0,-32.82541"
             inkscape:connector-curvature="0" />
          <g
             transform="matrix(0,-1,1,0,0,-102.99405)"
             id="g3356">
            <g
               id="g3358">
              <path
                 id="path3360"
                 style="fill:#000000;fill-opacity:1;fill-rule:nonzero;stroke:none"
                 d="m 2.39102,0 c -0.99626,0.19925 -2.78952,0.59775 -3.98503,1.49438 0.99626,-1.09588 0.99626,-1.89288 0,-2.98876 C -0.3985,-0.59775 1.39476,-0.19925 2.39102,0"
                 inkscape:connector-curvature="0" />
            </g>
          </g>
          <path
             id="path3362"
             style="fill:none;stroke:#000000;stroke-width:0.3985;stroke-linecap:butt;stroke-linejoin:miter;stroke-miterlimit:10;stroke-opacity:1;stroke-dasharray:none"
             d="m 0,-121.38945 0,-19.03264"
             inkscape:connector-curvature="0" />
          <g
             transform="matrix(0,-1,1,0,0,-140.42209)"
             id="g3364">
            <g
               id="g3366">
              <path
                 id="path3368"
                 style="fill:#000000;fill-opacity:1;fill-rule:nonzero;stroke:none"
                 d="m 2.39102,0 c -0.99626,0.19925 -2.78952,0.59775 -3.98503,1.49438 0.99626,-1.09588 0.99626,-1.89288 0,-2.98876 C -0.3985,-0.59775 1.39476,-0.19925 2.39102,0"
                 inkscape:connector-curvature="0" />
            </g>
          </g>
          <path
             id="path3370"
             style="fill:none;stroke:#000000;stroke-width:0.3985;stroke-linecap:butt;stroke-linejoin:miter;stroke-miterlimit:10;stroke-opacity:1;stroke-dasharray:none"
             d="m 0,-197.34866 0,-19.03936"
             inkscape:connector-curvature="0" />
          <g
             transform="matrix(0,-1,1,0,0,-216.38802)"
             id="g3372">
            <g
               id="g3374">
              <path
                 id="path3376"
                 style="fill:#000000;fill-opacity:1;fill-rule:nonzero;stroke:none"
                 d="m 2.39102,0 c -0.99626,0.19925 -2.78952,0.59775 -3.98503,1.49438 0.99626,-1.09588 0.99626,-1.89288 0,-2.98876 C -0.3985,-0.59775 1.39476,-0.19925 2.39102,0"
                 inkscape:connector-curvature="0" />
            </g>
          </g>
        </g>
      </g>
    </g>
  </g>
</svg>
